{
  "name":"Defesa civil",
  "url":"ftp://ftp.ibge.gov.br/Perfil_Municipios/2006/base_MUNIC_2006.zip",
  "md5":"e9dcefc8a853c0588ee416b145a0ffbb",
  "fileInZip":"Base 2006.xls",
  "md5FileInZip":"e16a5770a8640b1dd7f438657204e944",
  "startRow": 1,
  "format":"xls.zip",
  "workbook":"Defesa Civil",
  "years": [2006],
  "cityIdColumn": 0,
  "indicatorStartColumn": 1,
  "indicatorRow": 0,
  "firstCityId":"1100015",
  "lastCityId":"5300108",
  "indicators": [
    {"id":"A269","shortName":"Coordenadoria Municipal de Defesa Civil - existência"},
    {"id":"A270","shortName":"Coordenadoria Municipal de Defesa Civil - Ano da lei de criação"},
    {"id":"A271","shortName":"Coordenadoria Municipal de Defesa Civil - Número da lei de criação"},
    {"id":"A272","shortName":"Conselho Municipal de Defesa Civil - existência"},
    {"id":"A273","shortName":"Conselho Municipal de Defesa Civil - Ano da lei de criação"},
    {"id":"A274","shortName":"Conselho Municipal de Defesa Civil - Número da lei de criação"},
    {"id":"A275","shortName":"Conselho Municipal de Defesa Civil é paritário"},
    {"id":"A276","shortName":"Caráter do Conselho Municipal de Defesa Civil: Consultivo"},
    {"id":"A277","shortName":"Caráter do Conselho Municipal de Defesa Civil: Deliberativo"},
    {"id":"A278","shortName":"Caráter do Conselho Municipal de Defesa Civil: Normativo"},
    {"id":"A279","shortName":"Caráter do Conselho Municipal de Defesa Civil: Fiscalizador"},
    {"id":"A280","shortName":"Freqüência das reuniões do Conselho Municipal de Defesa Civil nos últimos 12 meses"},
    {"id":"A281","shortName":"O município possui outro tipo de unidade de Defesa Civil"}
  ]
}
