{
  "name": "Despeça orçamentária",
  "md5": "ad9ea997963b2cfcc9423e09e2445738",
  "url": "http://www.ipeadata.gov.br/ExibeSerieR.aspx?oper=exportCSVUS&serid=40126&MINDATA=1985&MAXDATA=2017&TNIVID=5",
  "years": [1985, 1986, 1987, 1988, 1989, 1990, 1991, 1992, 1993, 1994, 1995, 1996, 1997, 1998, 1999, 2000, 2001, 2002, 2003, 2004, 2005, 2006, 2007, 2008, 2009, 2010, 2011, 2012, 2013, 2014, 2015, 2016, 2017],
  "format": "csv",
  "yearCycle": true,
  "firstCityId": "1200013",
  "lastCityId": "1722107",
  "indicatorRow": null,
  "indicatorStartColumn": 3,
  "cityIdColumn": 1,
  "startRow": 2,
  "indicators": [
    {
      "id": "desporc",
      "shortName": "Despesa orçamentária - municipal (R$)",
      "definition": "Destina-se ao registro do valor total da soma das Despesas Correntes com as Despesas de Capital. O universo de municípios da tabela é definido pelo IBGE no levantamento censitário e não necessariamente coincide com aquele utilizado pelo STN ou oficialmente existente ou instalado na data de referência. Para os anos de 2002 a 2004 a diferença entre receita orçamentária e o somatório da receita corrente e receita de capital se deve às deduções relativas ao fundef. Assim, receita orçamentária = receita corrente (-) deduções receita corrente (+) receita de capital."
    }
  ]
}
