{
  "name":"Vigilância sanitária",
  "url":"ftp://ftp.ibge.gov.br/Perfil_Municipios/2014/base_MUNIC_xls_2014.zip",
  "md5":"ecc5696652246d519dc177dc3859c050",
  "fileInZip":"munic2014.xls",
  "md5FileInZip":"004db4d9cb6184f7a91404f4e5a7c13d",
  "startRow": 1,
  "format":"xls.zip",
  "workbook":"Vigilância sanitária",
  "years": [2014],
  "cityIdColumn": 0,
  "indicatorStartColumn": 1,
  "indicatorRow": 0,
  "firstCityId":"1100015",
  "lastCityId":"5300108",
  "indicators": [
    {"id":"A843","shortName":"Caracterização do órgão de vigilância sanitária"},
    {"id":"A844","shortName":"Caracterização do órgão de vigilância sanitária - Responsável também por:"},
    {"id":"A845","shortName":"Caracterização do órgão de vigilância sanitária - Responsável também por: Vigilância epidemiológica"},
    {"id":"A846","shortName":"Caracterização do órgão de vigilância sanitária - Responsável também por: Vigilância ambiental"},
    {"id":"A847","shortName":"Caracterização do órgão de vigilância sanitária - Responsável também por: Vigilância em saúde do trabalhador"},
    {"id":"A848","shortName":"Caracterização do órgão de vigilância sanitária - Responsável também por: Centro de controle de zoonoses"},
    {"id":"A849","shortName":"Caracterização do órgão de vigilância sanitária - Responsável também por: Controle de endemias"},
    {"id":"A850","shortName":"Caracterização do órgão de vigilância sanitária - Escolaridade"},
    {"id":"A851","shortName":"Caracterização do órgão de vigilância sanitária - Formação de nível superior"},
    {"id":"A852","shortName":"Recursos humanos da vigilância sanitária - Total (1)"},
    {"id":"A853","shortName":"Recursos humanos da vigilância sanitária - Total Sem instrução (2)"},
    {"id":"A854","shortName":"Recursos humanos da vigilância sanitária - Total Ensino fundamental (3)"},
    {"id":"A855","shortName":"Recursos humanos da vigilância sanitária - Total Ensino médio"},
    {"id":"A856","shortName":"Recursos humanos da vigilância sanitária - Total Ensino superior"},
    {"id":"A857","shortName":"Recursos humanos da vigilância sanitária - Total Pós-graduação"},
    {"id":"A858","shortName":"Recursos humanos da vigilância sanitária - Total Estatutários (1)"},
    {"id":"A859","shortName":"Recursos humanos da vigilância sanitária - Estatutários - Total Sem instrução (2)"},
    {"id":"A860","shortName":"Recursos humanos da vigilância sanitária - Estatutários - Total Ensino fundamental (3)"},
    {"id":"A861","shortName":"Recursos humanos da vigilância sanitária - Estatutários - Total Ensino médio"},
    {"id":"A862","shortName":"Recursos humanos da vigilância sanitária - Estatutários - Total Ensino superior"},
    {"id":"A863","shortName":"Recursos humanos da vigilância sanitária - Estatutários - Total Pós-graduação"},
    {"id":"A864","shortName":"Recursos humanos da vigilância sanitária - Total de CLT (1)"},
    {"id":"A865","shortName":"Recursos humanos da vigilância sanitária - CLT - Total Sem instrução (2)"},
    {"id":"A866","shortName":"Recursos humanos da vigilância sanitária - CLT - Total Ensino fundamental (3)"},
    {"id":"A867","shortName":"Recursos humanos da vigilância sanitária - CLT - Total Ensino médio"},
    {"id":"A868","shortName":"Recursos humanos da vigilância sanitária - CLT - Total Ensino superior"},
    {"id":"A869","shortName":"Recursos humanos da vigilância sanitária - CLT - Total Pós-graduação"},
    {"id":"A870","shortName":"Recursos humanos da vigilância sanitária - Total de Somente comissionados (1) (4)"},
    {"id":"A871","shortName":"Recursos humanos da vigilância sanitária - Somente comissionados - Total Sem instrução (2)"},
    {"id":"A872","shortName":"Recursos humanos da vigilância sanitária - Somente comissionados - Total Ensino fundamental (3)"},
    {"id":"A873","shortName":"Recursos humanos da vigilância sanitária - Somente comissionados - Total Ensino médio"},
    {"id":"A874","shortName":"Recursos humanos da vigilância sanitária - Somente comissionados - Total Ensino superior"},
    {"id":"A875","shortName":"Recursos humanos da vigilância sanitária - Somente comissionados - Total Pós-graduação"},
    {"id":"A876","shortName":"Recursos humanos da vigilância sanitária - Total de Estagiários (1)"},
    {"id":"A877","shortName":"Recursos humanos da vigilância sanitária - Estagiários - Total Ensino fundamental"},
    {"id":"A878","shortName":"Recursos humanos da vigilância sanitária - Estagiários - Total Ensino médio"},
    {"id":"A879","shortName":"Recursos humanos da vigilância sanitária - Total de Sem vínculo permanente (1) (5)"},
    {"id":"A880","shortName":"Recursos humanos da vigilância sanitária - Sem vínculo permanente - Total Sem instrução (2)"},
    {"id":"A881","shortName":"Recursos humanos da vigilância sanitária - Sem vínculo permanente - Total Ensino fundamental (3)"},
    {"id":"A882","shortName":"Recursos humanos da vigilância sanitária - Sem vínculo permanente - Total Ensino médio"},
    {"id":"A883","shortName":"Recursos humanos da vigilância sanitária - Sem vínculo permanente - Total Ensino superior"},
    {"id":"A884","shortName":"Recursos humanos da vigilância sanitária - Sem vínculo permanente - Total Pós-graduação"},
    {"id":"A885","shortName":"Cursos de capacitação em vigilância sanitária"},
    {"id":"A886","shortName":"Cursos de capacitação em vigilância sanitária - Curso básico de vigilância sanitária"},
    {"id":"A887","shortName":"Cursos de capacitação em vigilância sanitária - Curso básico de vigilância sanitária Realizado pelo governo municipal"},
    {"id":"A888","shortName":"Cursos de capacitação em vigilância sanitária - Curso básico de vigilância sanitária Realizado pelo governo estadual"},
    {"id":"A889","shortName":"Cursos de capacitação em vigilância sanitária - Processo administrativo sanitário"},
    {"id":"A890","shortName":"Cursos de capacitação em vigilância sanitária - Processo administrativo sanitário Realizado pelo governo municipal"},
    {"id":"A891","shortName":"Cursos de capacitação em vigilância sanitária - Processo administrativo sanitário Realizado pelo governo estadual"},
    {"id":"A892","shortName":"Cursos de capacitação em vigilância sanitária - Inspeção em serviços de alimentação"},
    {"id":"A893","shortName":"Cursos de capacitação em vigilância sanitária - Inspeção em serviços de alimentação Realizado pelo governo municipal"},
    {"id":"A894","shortName":"Cursos de capacitação em vigilância sanitária - Inspeção em serviços de alimentação Realizado pelo governo estadual"},
    {"id":"A895","shortName":"Cursos de capacitação em vigilância sanitária - Inspeção em serviços de saúde"},
    {"id":"A896","shortName":"Cursos de capacitação em vigilância sanitária - Inspeção em serviços de saúde Realizado pelo governo municipal"},
    {"id":"A897","shortName":"Cursos de capacitação em vigilância sanitária - Inspeção em serviços de saúde Realizado pelo governo estadual"},
    {"id":"A898","shortName":"Cursos de capacitação em vigilância sanitária - Educação sanitária"},
    {"id":"A899","shortName":"Cursos de capacitação em vigilância sanitária - Educação sanitária Realizado pelo governo municipal"},
    {"id":"A900","shortName":"Cursos de capacitação em vigilância sanitária - Educação sanitária Realizado pelo governo estadual"},
    {"id":"A901","shortName":"Cursos de capacitação em vigilância sanitária - VIGIPÓS (6)"},
    {"id":"A902","shortName":"Cursos de capacitação em vigilância sanitária - VIGIPÓS (6) Realizado pelo governo municipal"},
    {"id":"A903","shortName":"Cursos de capacitação em vigilância sanitária - VIGIPÓS (6) Realizado pelo governo estadual"},
    {"id":"A904","shortName":"Cursos de capacitação em vigilância sanitária - Vigilância epidemiológica e epidemiologia"},
    {"id":"A905","shortName":"Cursos de capacitação em vigilância sanitária - Vigilância epidemiológica e epidemiologia Realizado pelo governo municipal"},
    {"id":"A906","shortName":"Cursos de capacitação em vigilância sanitária - Vigilância epidemiológica e epidemiologia Realizado pelo governo estadual"},
    {"id":"A907","shortName":"Cursos de capacitação em vigilância sanitária - Controle de zoonoses"},
    {"id":"A908","shortName":"Cursos de capacitação em vigilância sanitária - Controle de zoonoses Realizado pelo governo municipal"},
    {"id":"A909","shortName":"Cursos de capacitação em vigilância sanitária - Controle de zoonoses Realizado pelo governo estadual"},
    {"id":"A910","shortName":"Cursos de capacitação em vigilância sanitária - Boas práticas de fabricação"},
    {"id":"A911","shortName":"Cursos de capacitação em vigilância sanitária - Boas práticas de fabricação Realizado pelo governo municipal"},
    {"id":"A912","shortName":"Cursos de capacitação em vigilância sanitária - Boas práticas de fabricação Realizado pelo governo estadual"},
    {"id":"A913","shortName":"Cursos de capacitação em vigilância sanitária - Outros"},
    {"id":"A914","shortName":"Cursos de capacitação em vigilância sanitária - Outros Realizado pelo governo municipal"},
    {"id":"A915","shortName":"Cursos de capacitação em vigilância sanitária - Outros Realizado pelo governo estadual"},
    {"id":"A916","shortName":"Possui profissionais capacitados/treinados para realizar ação sanitária"},
    {"id":"A917","shortName":"Possui profissionais capacitados/treinados para realizar ação sanitária - Objetos de intervenção: Processo administrativo sanitário"},
    {"id":"A918","shortName":"Possui profissionais capacitados/treinados para realizar ação sanitária - Objetos de intervenção: Comércio varejista de alimentos"},
    {"id":"A919","shortName":"Possui profissionais capacitados/treinados para realizar ação sanitária - Objetos de intervenção: Consultórios e serviços odontológicos e médicos"},
    {"id":"A920","shortName":"Possui profissionais capacitados/treinados para realizar ação sanitária - Objetos de intervenção: Serviços de radiodiagnóstico"},
    {"id":"A921","shortName":"Possui profissionais capacitados/treinados para realizar ação sanitária - Objetos de intervenção: Policlínicas/Centros de especialidades médicas"},
    {"id":"A922","shortName":"Possui profissionais capacitados/treinados para realizar ação sanitária - Objetos de intervenção: Hospital"},
    {"id":"A923","shortName":"Possui profissionais capacitados/treinados para realizar ação sanitária - Objetos de intervenção: Drogaria"},
    {"id":"A924","shortName":"Possui profissionais capacitados/treinados para realizar ação sanitária - Objetos de intervenção: Farmácia"},
    {"id":"A925","shortName":"Possui profissionais capacitados/treinados para realizar ação sanitária - Objetos de intervenção: Laboratório de análises clínicas"},
    {"id":"A926","shortName":"Possui profissionais capacitados/treinados para realizar ação sanitária - Objetos de intervenção: Indústria de alimentos"},
    {"id":"A927","shortName":"Possui profissionais capacitados/treinados para realizar ação sanitária - Objetos de intervenção: Indústria de saneantes"},
    {"id":"A928","shortName":"Possui profissionais capacitados/treinados para realizar ação sanitária - Objetos de intervenção: Indústria de cosméticos"},
    {"id":"A929","shortName":"Possui profissionais capacitados/treinados para realizar ação sanitária - Objetos de intervenção: Indústria de medicamentos"},
    {"id":"A930","shortName":"Possui profissionais capacitados/treinados para realizar ação sanitária - Objetos de intervenção: Indústria de produtos para saúde"},
    {"id":"A931","shortName":"Possui profissionais capacitados/treinados para realizar ação sanitária - Objetos de intervenção: Serviço de terapia renal substitutiva"},
    {"id":"A932","shortName":"Possui profissionais capacitados/treinados para realizar ação sanitária - Objetos de intervenção: Serviço de hemoterapia"},
    {"id":"A933","shortName":"Possui profissionais capacitados/treinados para realizar ação sanitária - Objetos de intervenção: Investigação de surtos de doenças transmitidas por alimentos"},
    {"id":"A934","shortName":"Possui profissionais capacitados/treinados para realizar ação sanitária - Objetos de intervenção: Investigação de surtos de infecção em serviços de saúde"},
    {"id":"A935","shortName":"Possui profissionais capacitados/treinados para realizar ação sanitária - Objetos de intervenção: Investigação de eventos adversos e/ou queixas técnicas"},
    {"id":"A936","shortName":"Possui profissionais capacitados/treinados para realizar ação sanitária - Objetos de intervenção: Educação em saúde"},
    {"id":"A937","shortName":"Possui profissionais capacitados/treinados para realizar ação sanitária - Objetos de intervenção: Banco de tecidos e células"},
    {"id":"A938","shortName":"Carreira específica para a Vigilância Sanitária no governo municipal - existência"},
    {"id":"A939","shortName":"Código Sanitário Municipal - existência"},
    {"id":"A940","shortName":"Código Sanitário Municipal – existêcia Ano da Lei"},
    {"id":"A941","shortName":"Governo municipal produz normas específicas para a realização das ações de vigilância sanitária"},
    {"id":"A942","shortName":"Governo municipal produz normas específicas para a realização das ações de vigilância sanitária - Divulgação"},
    {"id":"A943","shortName":"Governo municipal produz normas específicas para a realização das ações de vigilância sanitária - Divulgação - Especifique"},
    {"id":"A944","shortName":"Governo municipal produz normas específicas para a realização das ações de vigilância sanitária - Consultas ou audiências públicas antes da publicação"},
    {"id":"A945","shortName":"Outros instrumentos legais relacionados à Vigilância Sanitária utilizados para atuação da equipe"},
    {"id":"A946","shortName":"Outros instrumentos legais relacionados à Vigilância Sanitária utilizados para atuação da equipe: Código de Posturas Municipais"},
    {"id":"A947","shortName":"Outros instrumentos legais relacionados à Vigilância Sanitária utilizados para atuação da equipe: Código de Defesa do Consumidor"},
    {"id":"A948","shortName":"Outros instrumentos legais relacionados à Vigilância Sanitária utilizados para atuação da equipe: Resoluções da Diretoria Colegiada e Normas Técnicas da Anvisa"},
    {"id":"A949","shortName":"Outros instrumentos legais relacionados à Vigilância Sanitária utilizados para atuação da equipe: Outras"},
    {"id":"A950","shortName":"Vigilância Sanitária participa do processo de planejamento da Vigilância em Saúde e da Secretaria Municipal da Saúde"},
    {"id":"A951","shortName":"Diretrizes, objetivos e metas relacionadas à Vigilância Sanitária no Plano Municipal de Saúde - existência"},
    {"id":"A952","shortName":"Ações de vigilância sanitária integram o conjunto de ações da programação anual de saúde"},
    {"id":"A953","shortName":"Realiza planejamento anual de Vigilância Sanitária"},
    {"id":"A954","shortName":"Realiza planejamento anual de Vigilância Sanitária - Programação foi cumprida em 2013"},
    {"id":"A955","shortName":"Conselho Municipal de Saúde possui Comissão de Vigilância Sanitária"},
    {"id":"A956","shortName":"Conselho Municipal de Saúde possui comissão de tema específico relacionado às atividades de vigilância sanitária"},
    {"id":"A957","shortName":"Conselho Municipal de Saúde possui comissão de tema específico relacionado às atividades de vigilância sanitária - Especifique"},
    {"id":"A958","shortName":"Taxa de Vigilância Sanitária - existência"},
    {"id":"A959","shortName":"Taxa de Vigilância Sanitária - Ano da lei"},
    {"id":"A960","shortName":"Repasses de recursos exclusivamente estadual para a Vigilância Sanitária"},
    {"id":"A961","shortName":"Coordenador de vigilância sanitária conhece recursos repassados pela União (7)"},
    {"id":"A962","shortName":"Valor repassado pela União foi executado no ano de 2013 exclusivamente para ações de vigilância sanitária"},
    {"id":"A963","shortName":"Órgão responsável pela vigilância sanitária municipal é a unidade gestora do orçamento"},
    {"id":"A964","shortName":"Órgão responsável pela vigilância sanitária municipal é a Secretaria Municipal de Saúde"},
    {"id":"A965","shortName":"Infraestrutura da vigilância sanitária municipal - Dispõe de sala própria"},
    {"id":"A966","shortName":"Infraestrutura da vigilância sanitária municipal - Dispõe de veículos"},
    {"id":"A967","shortName":"Infraestrutura da vigilância sanitária municipal - Dispõe de veículos: Automóveis"},
    {"id":"A968","shortName":"Infraestrutura da vigilância sanitária municipal - Dispõe de veículos: Motos"},
    {"id":"A969","shortName":"Infraestrutura da vigilância sanitária municipal - Dispõe de veículos: Barcos"},
    {"id":"A970","shortName":"Infraestrutura da vigilância sanitária municipal - Dispõe de veículos: Outros"},
    {"id":"A971","shortName":"Infraestrutura da vigilância sanitária municipal - Computadores em funcionamento"},
    {"id":"A972","shortName":"Infraestrutura da vigilância sanitária municipal - Computadores em funcionamento Com acesso à internet"},
    {"id":"A973","shortName":"Inspeções sanitárias realizadas foram afetadas pela falta de equipamentos em 2013"},
    {"id":"A974","shortName":"Profissionais responsáveis pelas inspeções sanitárias estão formalmente investidos na função de fiscal (8)"},
    {"id":"A975","shortName":"Instrumentos de informação à disposição para planejar a execução da ação de Visa (fiscalização): Cadastro de Vigilância Sanitária"},
    {"id":"A976","shortName":"Instrumentos de informação à disposição para planejar a execução da ação de Visa (fiscalização): Cadastro de Vigilância Sanitária É informatizado"},
    {"id":"A977","shortName":"Instrumentos de informação à disposição para planejar a execução da ação de Visa (fiscalização): Cadastro Municipal de Atividades Econômicas"},
    {"id":"A978","shortName":"Instrumentos de informação à disposição para planejar a execução da ação de Visa (fiscalização): Cadastro Municipal de Atividades Econômicas É informatizado"},
    {"id":"A979","shortName":"Instrumentos de informação à disposição para planejar a execução da ação de Visa (fiscalização): Sistema de informações hospitalares - SIH-SUS"},
    {"id":"A980","shortName":"Instrumentos de informação à disposição para planejar a execução da ação de Visa (fiscalização): Sistema de Informação sobre Mortalidade – SIM"},
    {"id":"A981","shortName":"Instrumentos de informação à disposição para planejar a execução da ação de Visa (fiscalização): Sistema Nacional de Agravos de Notificação - SINAN"},
    {"id":"A982","shortName":"Instrumentos de informação à disposição para planejar a execução da ação de Visa (fiscalização): Sistema de informações sobre nascidos vivos - SINASC"},
    {"id":"A983","shortName":"Instrumentos de informação à disposição para planejar a execução da ação de Visa (fiscalização): Sistema de informações da atenção básica – SIAB"},
    {"id":"A984","shortName":"Instrumentos de informação à disposição para planejar a execução da ação de Visa (fiscalização): Sistema de Informação Ambulatorial - SAI"},
    {"id":"A985","shortName":"Instrumentos de informação à disposição para planejar a execução da ação de Visa (fiscalização): Cadastro Nacional de Estabelecimentos de Saúde – CNES"},
    {"id":"A986","shortName":"Instrumentos de informação à disposição para planejar a execução da ação de Visa (fiscalização): Outros"},
    {"id":"A987","shortName":"Instrumentos de informação à disposição para planejar a execução da ação de Visa (fiscalização): Outros - Especifique"},
    {"id":"A988","shortName":"Cadastro municipal de estabelecimentos sujeitos as suas ações de vigilância sanitária - existência"},
    {"id":"A989","shortName":"Acessa rotineiramente o sistema NOTIVISA"},
    {"id":"A990","shortName":"Desenvolve ações de Vigipós"},
    {"id":"A991","shortName":"Desenvolve ações de Vigipós: Hemovigilância"},
    {"id":"A992","shortName":"Desenvolve ações de Vigipós: Farmacovigilância"},
    {"id":"A993","shortName":"Desenvolve ações de Vigipós: Tecnovigilância"},
    {"id":"A994","shortName":"Desenvolve ações de Vigipós: Cosméticos"},
    {"id":"A995","shortName":"Desenvolve ações de Vigipós: Saneantes"},
    {"id":"A996","shortName":"Desenvolve ações de Vigipós: Outros"},
    {"id":"A997","shortName":"Instaura Processo Administrativo Sanitário"},
    {"id":"A998","shortName":"Possui apoio jurídico"},
    {"id":"A999","shortName":"Realiza ações de vigilância sanitária municipal conjuntas com outras áreas do poder público municipal e outros"},
    {"id":"A1000","shortName":"Realiza ações de vigilância sanitária municipal conjuntas com outras áreas do poder público municipal e outros: Órgãos de Assistência Social"},
    {"id":"A1001","shortName":"Realiza ações de vigilância sanitária municipal conjuntas com outras áreas do poder público municipal e outros: Órgãos de Meio Ambiente"},
    {"id":"A1002","shortName":"Realiza ações de vigilância sanitária municipal conjuntas com outras áreas do poder público municipal e outros: Órgãos de Educação e Cultura"},
    {"id":"A1003","shortName":"Realiza ações de vigilância sanitária municipal conjuntas com outras áreas do poder público municipal e outros: Órgãos de Segurança Pública"},
    {"id":"A1004","shortName":"Realiza ações de vigilância sanitária municipal conjuntas com outras áreas do poder público municipal e outros: ONG"},
    {"id":"A1005","shortName":"Realiza ações de vigilância sanitária municipal conjuntas com outras áreas do poder público municipal e outros: ONG"},
    {"id":"A1006","shortName":"Ações, programas ou projetos de inclusão produtiva para a geração de trabalho e renda na área de regulação em vigilância sanitária"},
    {"id":"A1007","shortName":"Ações, programas ou projetos de inclusão produtiva para a geração de trabalho e renda na área de regulação em vigilância sanitária: Projeto próprio do serviço"},
    {"id":"A1008","shortName":"Ações, programas ou projetos de inclusão produtiva para a geração de trabalho e renda na área de regulação em vigilância sanitária: Atua em parceria com outras secretarias ou serviços da prefeitura"},
    {"id":"A1009","shortName":"Recebimento e tratamento de denúncias sanitárias - Canal próprio"},
    {"id":"A1010","shortName":"Recebimento e tratamento de denúncias sanitárias - Ouvidoria SUS"},
    {"id":"A1011","shortName":"Recebimento e tratamento de denúncias sanitárias - Sistema de atendimento central do estado"},
    {"id":"A1012","shortName":"Recebimento e tratamento de denúncias sanitárias - Telefone próprio"},
    {"id":"A1013","shortName":"Recebimento e tratamento de denúncias sanitárias - Outros"},
    {"id":"A1014","shortName":"Recebimento e tratamento de denúncias sanitárias - Reclamações recebidas: Existe controle sobre a quantidade de reclamações recebidas"},
    {"id":"A1015","shortName":"Recebimento e tratamento de denúncias sanitárias - Reclamações recebidas: Registradas em livros/formulários próprios"},
    {"id":"A1016","shortName":"Recebimento e tratamento de denúncias sanitárias - Reclamações recebidas: Registradas em banco de dados"},
    {"id":"A1017","shortName":"Recebimento e tratamento de denúncias sanitárias - Reclamações recebidas: Respondidas aos reclamantes"},
    {"id":"A1018","shortName":"Recebimento e tratamento de denúncias sanitárias - Reclamações recebidas: Reclamante consegue identificar sua denúncia ou obter maiores informações através de número de protocolo"},
    {"id":"A1019","shortName":"Recebimento e tratamento de denúncias sanitárias - Reclamações recebidas: Repassa a denúncia à vigilância sanitária municipal"},
    {"id":"A1020","shortName":"Possui ações específicas de educação sanitária"},
    {"id":"A1021","shortName":"Possui ações específicas de comunicação de risco"}
  ]
}
