{
  "name": "2012 · Base de Dados 1999..2012",
  "url": "ftp://ftp.ibge.gov.br/Pib_Municipios/2012/base/base_1999_2012_xlsx.zip",
  "fileInZip": "PIB dos Municípios 1999-2012 Base Dados.xlsx",
  "md5": "7af06c187f4978aa636f83a902f60487",
  "md5FileInZip": "fc346938e9c8245371ce87b4f131fae4",
  "format": "xlsx.zip",
  "years": [2011, 2012],
  "startRow": 66641,
  "workbook": "BASE1",
  "yearColumn": 0,
  "cityIdColumn": 3,
  "indicatorStartColumn": 10,
  "indicatorRow": 0,
  "firstCityId": "1100015",
  "lastCityId": "5300108",
  "indicators": [
    {
      "id": "agro",
      "shortName": "Valor Adicionado Bruto, a preços correntes, da Agropecuária (R$ 1.000)",
      "indicatorRowId": "Valor Adicionado Bruto, a preços correntes, da Agropecuária\n(R$ 1.000 )"
    },
    {
      "id": "ind",
      "shortName": "Valor Adicionado Bruto, a preços correntes, da Indústria (R$ 1.000)",
      "indicatorRowId": "Valor Adicionado Bruto, a preços correntes, da Indústria\n(R$ 1.000 )"
    },
    {
      "id": "serv",
      "shortName": "Valor adicionado bruto, a preços correntes, dos Serviços, inclusive administração, saúde e educação públicas e seguridade social (R$ 1.000)",
      "indicatorRowId": "Valor adicionado bruto, a preços correntes, dos Serviços, inclusive administração, saúde e educação públicas e seguridade social\n(R$ 1.000 )"
    },
    {
      "id": "bruto",
      "shortName": "Valor Adicionado Bruto, a preços correntes, da Administração, saúde e educação públicas e seguridade social (R$ 1.000)",
      "indicatorRowId": "Valor Adicionado Bruto, a preços correntes, da Administração, saúde e educação públicas e seguridade social\n(R$ 1.000 )"
    },
    {
      "id": "impostos",
      "shortName": "Impostos, líquidos de subsídios, sobre produtos, a preços correntes (R$ 1.000)",
      "indicatorRowId": "Impostos, líquidos de subsídios, sobre produtos, a preços correntes\n(R$ 1.000 )"
    },
    {
      "id": "pib",
      "shortName": "Produto Interno Bruto a preços correntes (R$ 1.000)",
      "indicatorRowId": "Produto Interno Bruto a preços correntes\n(R$ 1.000 )"
    },
    {
      "id": "pop",
      "shortName": "População (Nº de habitantes)",
      "indicatorRowId": "População\nDado disponível somente para o último ano da série.\n(Nº de habitantes )"
    },
    {
      "id": "pibpcap",
      "shortName": "Produto Interno Bruto per capita (R$ 1,00)",
      "indicatorRowId": "Produto Interno Bruto per capita\nDado disponível somente para o último ano da série.\n(R$ 1,00 )"
    }
  ]
}
