{
  "name": "Bahia",
  "url": "ftp://ftp.ibge.gov.br/Censos/Censo_Demografico_2000/Dados_do_Universo/Municipios/PopMun_29_31.zip",
  "format": "xls.zip",
  "fileInZip": "uni   PopMun_29_3102cd00.xls",
  "md5": "e44d07aae424463c02061c7c91e4e170",
  "md5FileInZip": "123128fafae6d86f9c446a6ef69bad79",
  "startRow": 7,
  "firstCityId": "2900108",
  "lastCityId": "2933604",
  "endRow": 422,
  "indicatorStartColumn": 1,
  "indicatorRow": 4,
  "cityIdColumn": 10,
  "years": [2000],
  "workbook": "uni   PopMun_29_3102cd00",
  "indicators": [
    { "tid": "total", "id": "Total", "shortName": "Total" },
    { "id": "Homens", "shortName": "Homens" },
    { "id": "Mulheres", "shortName": "Mulheres" },
    { "id": "Urbana", "shortName": "Urbana" },
    { "id": "Rural", "shortName": "Rural" },
    { "indicatorRowId": "Total", "id": "Total10Mais", "shortName": "Total de 10 anos ou mais" },
    { "id": "Alfabetizada", "indicatorRowId": "Alfa-\nbetizada", "shortName": "10 anos ou mais alfabetizada" },
    { "id": "NaoAlfabetizada", "indicatorRowId": "", "shortName": "10 anos ou mais alfabetizada" },
    { "id": "TaxaAlfabetizacao", "indicatorRowId": "Taxa de\nalfa-\nbetização(%)", "shortName": "Taxa de Alfabetização (%)" }
  ]
}
