{
  "name": "Distrito Federal",
  "url": "ftp://ftp.ibge.gov.br/Censos/Censo_Demografico_2000/Dados_do_Universo/Municipios/PopMun_53_31.zip",
  "format": "xls.zip",
  "fileInZip": "uni   PopMun_53_3102cd00.xls",
  "md5": "2d157d6ec438789475f12cc8390a33dc",
  "md5FileInZip": "684b5051a9db049e1d4eb1e9375362e5",
  "startRow": 7,
  "firstCityId": "5300108",
  "lastCityId": "5300108",
  "endRow": 8,
  "indicatorStartColumn": 1,
  "indicatorRow": 4,
  "cityIdColumn": 10,
  "years": [2000],
  "workbook": "uni   PopMun_53_3102cd00",
  "indicators": [
    { "tid": "total", "id": "Total", "shortName": "Total" },
    { "id": "Homens", "shortName": "Homens" },
    { "id": "Mulheres", "shortName": "Mulheres" },
    { "id": "Urbana", "shortName": "Urbana" },
    { "id": "Rural", "shortName": "Rural" },
    { "indicatorRowId": "Total", "id": "Total10Mais", "shortName": "Total de 10 anos ou mais" },
    { "id": "Alfabetizada", "indicatorRowId": "Alfa-\nbetizada", "shortName": "10 anos ou mais alfabetizada" },
    { "id": "NaoAlfabetizada", "indicatorRowId": "", "shortName": "10 anos ou mais alfabetizada" },
    { "id": "TaxaAlfabetizacao", "indicatorRowId": "Taxa de\nalfa-\nbetização(%)", "shortName": "Taxa de Alfabetização (%)" }
  ]
}
