{
  "name": "Santa Catarina",
  "url": "ftp://ftp.ibge.gov.br/Censos/Censo_Demografico_2000/Dados_do_Universo/Municipios/PopMun_42_31.zip",
  "format": "xls.zip",
  "fileInZip": "uni   PopMun_42_3102cd00.xls",
  "md5": "81d44c805998e39d620e3d1c00d7f047",
  "md5FileInZip": "4be8f5b0627725528730c4f692b320c9",
  "startRow": 7,
  "firstCityId": "4200051",
  "lastCityId": "4219853",
  "endRow": 300,
  "indicatorStartColumn": 1,
  "indicatorRow": 4,
  "cityIdColumn": 10,
  "years": [2000],
  "workbook": "uni   PopMun_42_3102cd00",
  "indicators": [
    { "tid": "total", "id": "Total", "shortName": "Total" },
    { "id": "Homens", "shortName": "Homens" },
    { "id": "Mulheres", "shortName": "Mulheres" },
    { "id": "Urbana", "shortName": "Urbana" },
    { "id": "Rural", "shortName": "Rural" },
    { "indicatorRowId": "Total", "id": "Total10Mais", "shortName": "Total de 10 anos ou mais" },
    { "id": "Alfabetizada", "indicatorRowId": "Alfa-\nbetizada", "shortName": "10 anos ou mais alfabetizada" },
    { "id": "NaoAlfabetizada", "indicatorRowId": "", "shortName": "10 anos ou mais alfabetizada" },
    { "id": "TaxaAlfabetizacao", "indicatorRowId": "Taxa de\nalfa-\nbetização(%)", "shortName": "Taxa de Alfabetização (%)" }
  ]
}
