{
  "name":"Informações sobre o atual prefeito",
  "url":"ftp://ftp.ibge.gov.br/Perfil_Municipios/2005/base_MUNIC_2005.zip",
  "md5":"3227a92f76c49858e73751114fd37c1d",
  "fileInZip":"Base 2005.xls",
  "md5FileInZip":"010da754dc3b3f23ff51810f859efb0c",
  "startRow": 1,
  "format":"xls.zip",
  "workbook":"Informações prefeito",
  "years": [2005],
  "cityIdColumn": 0,
  "indicatorStartColumn": 1,
  "indicatorRow": 0,
  "firstCityId":"1100015",
  "lastCityId":"5300108",
  "indicators": [
    {"id":"A2","shortName":"Nome do prefeito"},
    {"id":"A3","shortName":"Prefeito atual estava em exercício de mandato em 2004"},
    {"id":"A4","shortName":"Sexo"},
    {"id":"A5","shortName":"Idade"},
    {"id":"A6","shortName":"Escolaridade"},
    {"id":"A7","shortName":"Partido pelo qual foi eleito"},
    {"id":"A8","shortName":"Partido atual"}
  ]
}
