{
  "name": "Espírito Santo",
  "url": "ftp://ftp.ibge.gov.br/Censos/Censo_Demografico_2010/Resultados_do_Universo/xls/Municipios/espirito_santo.zip",
  "md5": "852f94c39646d143dad1bff17929e699",
  "fileInZip": "Tabela 4.18.1.1.xls",
  "md5FileInZip": "0d02dd36d686a83efc583e7a14000350",
  "format": "xls.zip",
  "indicatorRow": 6,
  "indicatorStartColumn": 1,
  "cityIdColumn": 10,
  "startRow": 28,
  "endRow": 408,
  "years": [2010],
  "workbook": "Tabela 4.18.1.1-ES",
  "firstCityId": "3200102",
  "lastCityId": "32053090512",
  "skipDistricts": true,
  "indicators": [
    { "tid": "total", "indicatorRowId": "", "id": "Total", "shortName": "Total" },
    { "indicatorRowId": "", "id": "Homens", "shortName": "Homens" },
    { "indicatorRowId": "", "id": "Mulheres", "shortName": "Mulheres" },
    { "indicatorRowId": "Total", "id": "Urbana", "shortName": "Situação Urbana · Total" },
    { "indicatorRowId": "Homens", "id": "UrbanaHomens", "shortName": "Situação Urbana · Homens" },
    { "indicatorRowId": "Mulheres", "id": "UrbanaMulheres", "shortName": "Situação Urbana · Mulheres" },
    { "indicatorRowId": "Total", "id": "Rural", "shortName": "Situação Rural · Total" },
    { "indicatorRowId": "Homens", "id": "RuralHomens", "shortName": "Situação Rural · Homens" },
    { "indicatorRowId": "Mulheres", "id": "RuralMulheres", "shortName": "Situação Rural · Mulheres" }
  ]
}
