{
  "name": "Rio Grande do Sul",
  "url": "ftp://ftp.ibge.gov.br/Censos/Censo_Demografico_2000/Dados_do_Universo/Municipios/PopMun_43_31.zip",
  "format": "xls.zip",
  "fileInZip": "uni   PopMun_43_3101cd00.xls",
  "md5": "6ea0c8330de7369b2785086e508812c3",
  "md5FileInZip": "113779362bca7838322d53472192c6fb",
  "startRow": 7,
  "firstCityId": "4300059",
  "lastCityId": "4323804",
  "endRow": 474,
  "indicatorStartColumn": 1,
  "indicatorRow": 4,
  "cityIdColumn": 10,
  "years": [2000],
  "workbook": "uni   PopMun_43_3101cd00",
  "indicators": [
    { "indicatorRowId": "", "id": "Total", "shortName": "Total" },
    { "id": "0a4", "indicatorRowId": "0 a 4\nanos", "shortName": "0 a 4 anos" },
    { "id": "5a9", "indicatorRowId": "5 a 9\nanos", "shortName": "5 a 9 anos" },
    { "id": "10a19", "indicatorRowId": "10 a 19\nanos", "shortName": "10 a 19 anos" },
    { "id": "20a29", "indicatorRowId": "20 a 29\nanos", "shortName": "20 a 29 anos" },
    { "id": "30a39", "indicatorRowId": "30 a 39\nanos", "shortName": "30 a 39 anos" },
    { "id": "40a49", "indicatorRowId": "40 a 49\nanos", "shortName": "40 a 49 anos" },
    { "id": "50a59", "indicatorRowId": "50 a 59\nanos", "shortName": "50 a 59 anos" },
    { "id": "60mais", "indicatorRowId": "60 anos\nou mais", "shortName": "60 anos ou mais" }
  ]
}
