{
  "name": "Rio de Janeiro",
  "url": "ftp://ftp.ibge.gov.br/Censos/Censo_Demografico_2000/Dados_do_Universo/Municipios/PopMun_33_31.zip",
  "format": "xls.zip",
  "fileInZip": "uni   PopMun_33_3101cd00.xls",
  "md5": "269a585729a749bb021ec0eb8951b908",
  "md5FileInZip": "d02008cb11fce63f318bf08f79818ca4",
  "startRow": 7,
  "firstCityId": "3300100",
  "lastCityId": "3306305",
  "endRow": 98,
  "indicatorStartColumn": 1,
  "indicatorRow": 4,
  "cityIdColumn": 10,
  "years": [2000],
  "workbook": "uni   PopMun_33_3101cd00",
  "indicators": [
    { "indicatorRowId": "", "id": "Total", "shortName": "Total" },
    { "id": "0a4", "indicatorRowId": "0 a 4\nanos", "shortName": "0 a 4 anos" },
    { "id": "5a9", "indicatorRowId": "5 a 9\nanos", "shortName": "5 a 9 anos" },
    { "id": "10a19", "indicatorRowId": "10 a 19\nanos", "shortName": "10 a 19 anos" },
    { "id": "20a29", "indicatorRowId": "20 a 29\nanos", "shortName": "20 a 29 anos" },
    { "id": "30a39", "indicatorRowId": "30 a 39\nanos", "shortName": "30 a 39 anos" },
    { "id": "40a49", "indicatorRowId": "40 a 49\nanos", "shortName": "40 a 49 anos" },
    { "id": "50a59", "indicatorRowId": "50 a 59\nanos", "shortName": "50 a 59 anos" },
    { "id": "60mais", "indicatorRowId": "60 anos\nou mais", "shortName": "60 anos ou mais" }
  ]
}
