{
  "name": "Amazonas",
  "url": "ftp://ftp.ibge.gov.br/Censos/Censo_Demografico_1991/Populacao_Residente_Urbana_Rural/Amazonas.zip",
  "md5": "2ac21bc494127e8feedfd0d3f99cf938",
  "fileInZip": "POPS91AM.XLS",
  "md5FileInZip": "4784aaabc4b8f40f24d0d46d8c7fec66",
  "startRow": 4,
  "format": "xls.zip",
  "workbook": "Plan1",
  "years": [1991],
  "cityColumn": 0,
  "indicatorRow": 0,
  "firstCityId": "1300029",
  "lastCityId": "1304401",
  "indicatorStartColumn": 1,
  "indicators": [
    {
      "id": "Rural",
      "tid": "rural",
      "shortName": "Rural"
    },
    {
      "id": "Urbana",
      "tid": "urbana",
      "shortName": "Urbana"
    }
  ]
}
