{
  "name": "Bahia",
  "url": "ftp://ftp.ibge.gov.br/Censos/Censo_Demografico_1991/Populacao_Residente_Urbana_Rural/Bahia.zip",
  "md5": "faa4eeef2cc63885f549a20b7c89dc9d",
  "fileInZip": "POPS91BA.XLS",
  "md5FileInZip": "39f52f715d2f870f683d99625a6571bf",
  "startRow": 4,
  "format": "xls.zip",
  "workbook": "Plan1",
  "years": [1991],
  "cityColumn": 0,
  "indicatorRow": 0,
  "firstCityId": "2900108",
  "lastCityId": "2933604",
  "indicatorStartColumn": 1,
  "indicators": [
    {
      "id": "Rural",
      "tid": "rural",
      "shortName": "Rural"
    },
    {
      "id": "Urbana",
      "tid": "urbana",
      "shortName": "Urbana"
    }
  ]
}
