{
  "name": "Pará",
  "url": "ftp://ftp.ibge.gov.br/Censos/Censo_Demografico_1991/Populacao_Residente_Urbana_Rural/Para.zip",
  "md5": "f51acd3f89b727b345cef4606842e23d",
  "fileInZip": "POPS91PA.XLS",
  "md5FileInZip": "5b5bf09a441e2f233f6b2ded507d682c",
  "startRow": 4,
  "format": "xls.zip",
  "workbook": "Plan1",
  "years": [1991],
  "cityColumn": 0,
  "indicatorRow": 0,
  "firstCityId": "1500107",
  "lastCityId": "1508407",
  "indicatorStartColumn": 1,
  "indicators": [
    {
      "id": "Rural",
      "tid": "rural",
      "shortName": "Rural"
    },
    {
      "id": "Urbana",
      "tid": "urbana",
      "shortName": "Urbana"
    }
  ]
}
