{
  "name": "Rio Grande do Norte",
  "url": "ftp://ftp.ibge.gov.br/Censos/Censo_Demografico_1991/Populacao_Residente_Urbana_Rural/Rio_Grande_do_Norte.zip",
  "md5": "760db8142f60bd257a458f47bdeb8697",
  "fileInZip": "POPS91RN.XLS",
  "md5FileInZip": "13100778de2e3d9822aca8939628b9c9",
  "startRow": 4,
  "format": "xls.zip",
  "workbook": "Plan1",
  "years": [1991],
  "cityColumn": 0,
  "indicatorRow": 0,
  "firstCityId": "2400109",
  "lastCityId": "2415008",
  "indicatorStartColumn": 1,
  "indicators": [
    {
      "id": "Rural",
      "tid": "rural",
      "shortName": "Rural"
    },
    {
      "id": "Urbana",
      "tid": "urbana",
      "shortName": "Urbana"
    }
  ]
}
