{
  "name": "2000",
  "md5FileInZip": "2676dda82f12b629e13f9311332e0800",
  "md5": "57a8bcbeb077746d0d191f5a0121d59f",
  "fileInZip": "Finbra2000v0809.mdb",
  "url": "http://www.tesouro.fazenda.gov.br/documents/10180/137007/Finbra2000.zip/312ba81c-4ea7-45b8-af1e-97c1eccc0599",
  "years": [2000],
  "yearColumn": 0,
  "cityIdColumn": [1, 2],
  "indicatorStartColumn": 3,
  "format": "mdb.zip",
  "query": "SELECT\n\t2000, CD_UF, CD_MUN, \n\t\n\t[Ativo], [Ativo Financeiro], [Disponivel], [Caixa], [Bancos], [Aplic Financ], [Creditos Circul AF], [Cred a Receber], [Dep Realiz CP],\n\t[Out Valor Realiz], [Ativo N Fin], [Realiz CP], [Creditos Circul ANF], [Fornec Receber], [Creditos Parcelados], [Diversos Respons],\n\t[Emprest e Financ], [Adiantam Concedidos], [Recursos vinculados], [Out Cred Circul], [Provisao Dev Duvid], [Bens e Val Circul], [Estoques],\n\t[Out Bens Val Circul], [Valores Pendentes CP], [Desp Antecipadas], [Valores Diferidos], [Out Val Pend CP], [Realizavel LP], [Dep Realiz LP],\n\t[Dep Compuls], [Recursos Vincul], [Cred Realiz LP], [Divida Ativa], [Deved Entid Agente], [Emprest Financ], [Creditos a Receber],\n\t[Prov Perdas Provav LP], [Permanente], a.[Investimentos], [Partic Societaria], [Out Investimentos], [Prov Perdas Provav Perm], [Imobilizado],\n\t[Bens Moveis Imoveis], [Titulos Valores], [Deprec Amort Ex], a.[Diferido], [Desp Diferidas], [Amortiz Acumulada], [Ativo Real], [Ativo Compensado],\n\t[Resp Titulo Val], [Garantias], [Convenios Contratos], [Out Compensac],\n\t\n\t[Despesas Or\u00e7ament\u00e1rias], [Desp Correntes], [Desp de Custeio], [Desp de Pessoal], [Pessoal Ativos], [Obriga\u00e7\u00f5es Patronais],\n\t[Demais Desp de Pessoal], [Terceiriza\u00e7\u00e3o de M\u00e3o de Obra], [Outras Desp de Pessoal], [Servi\u00e7os de Terceiros e Encargos],\n\t[Outros Custeio], [Desp com Transf Correntes], [Transf a Pessoas], [Pessoal Inativos], [Pessoal Pensionistas], [Sal\u00e1rio Fam\u00edlia],\n\t[Outra Trans a Pessoas], [Contr Form PASEP], [Juros e Encargos da D\u00edvida], [Demais Desp Transf Correntes], [Outras Desp Correntes],\n\t[Despesas de Capital], d.[Investimentos], [Invers\u00f5es Financeiras], [Desp Transf de Capital], [Amortiza\u00e7\u00f5es],\n\t[Outras Desp Transf Capital], [SUPERAVIT ou DEFICIT], [Legislativa], [Judici\u00e1ria], [Planejamento], [Agricultura],\n\t[Educa\u00e7\u00e3o e Cultura], [Habita\u00e7\u00e3o e Urbanismo], [Ind\u00fastria e Com\u00e9rcio], [Sa\u00fade e Saneamento], [Assist\u00eancia e Previd\u00eancia],\n\t[Transporte], [Seguran\u00e7a P\u00fablica], [Desenvolvimento Regional], [Energia e Recursos Minerais], [Comunica\u00e7\u00f5es], [Outras],\n\t\n\t[Passivo], [Passivo Financeiro], [Depositos], [Consignacoes], [Depositos Diversos], [Obrigac em Circulacao], [Restos a pagar Processados],\n\t[Fornecedores Ex], [Fornecedores Ant], [Convenios a pagar], [Pessoal a pagar Ex], [Pesoal a pagar Ant], [Encargos Sociais RC],\n\t[Provisoes Diversas], [Obrigacoes Tributarias], [Debitos Divers aPG], [Restos a Pagar NP], [Restos a Liquidar], [Credores diversos],\n\t[Adiantamentos recebidos], [Outras Obrig a PG], [Passivo Nao Financeiro], [Obrigacoes em circ], p.[Diferido], [Provisoes],\n\t[Opc Internas], [Opc Externas], [Adiantam Div Receb], [Outros Debitos a Pagar], [Val Pend Curto Prazo], [Valores Pendentes], [Exigivel Longo Prazo],\n\t[Dep Exig Longo P], [Obrig ex longo P], [LP OPC Internas], [LP OPC Externas], [Obrig Legais e Trib], [LP Obrig a Pagar],\n\t[Outras Exigibilidades], [Result Futuros], [Passivo Real], [Patrimonio Liquido], [Patrim Capital], [Reservas], [Resultado Acumulado],\n\t[Passivo Compensado],\n\t\n\t[Rec Or\u00e7ament\u00e1ria], [Rec Correntes], [Rec Tribut\u00e1ria], [Impostos], IPTU, ISS, ITBI, [Taxas], [Tx Poder de Policia],\n\t[TX Presta\u00e7\u00e3o de Servicos], [Contr de Melhoria], [Rec de Contribui\u00e7\u00e3o], [Contrib Custeio Previd\u00eancia], [Comp Fin 201 CF],\n\t[Outras Rec de Contribui\u00e7\u00e3o], [Rec Patrimonial], [Rec Financeiras], [Outras rec Patrimoniais], [Rec Industrial], [Rec Agropecu\u00e1ria],\n\t[Rec de Servi\u00e7os], [Rec Transf Correntes], [Transf Intergov da Uni\u00e3o], [Cota FPM], IRRF, [Cota ITR], [Cota IOF Ouro], [LC 87_96 ICMS],\n\t[Cota Sal\u00e1rio Educa\u00e7\u00e3o Uni\u00e3o], [Fundef Uni\u00e3o], [SUS Uni\u00e3o], [Outras Transf da Uni\u00e3o], [Transf Intergov do Estado], [Cota ICMS], [Cota IPVA],\n\t[Cota IPI Exporta\u00e7\u00e3o], [Cota Sal\u00e1rio Educa\u00e7\u00e3o Estado], [Fundef Estado], [SUS Estado], [Outras Transf Estado], [Outras Transf Correntes],\n\t[Demais Rec Correntes], [Rec Divida Ativa], [Outras Rec Correntes], [Rec de Capital], [Opera\u00e7\u00f5es de Cr\u00e9dito], [Aliena\u00e7\u00e3o], [Rec Transf de Capital],\n\t[Rec Transf de Capital Uni\u00e3o], [Rec Transf de Capital Estado], [Outras Rec Transf Capital], [Outras rec de Capital]\nFROM Ativo a\nFULL JOIN Despesa d ON (d.CD_UF = a.CD_UF AND d.CD_MUN = a.CD_MUN)\nFULL JOIN Passivo p ON (p.CD_UF = a.CD_UF AND p.CD_MUN = a.CD_MUN) OR (p.CD_UF = d.CD_UF AND p.CD_MUN = d.CD_MUN)\nFULL JOIN Receita r ON (r.CD_UF = a.CD_UF AND r.CD_MUN = a.CD_MUN) OR (r.CD_UF = d.CD_UF AND r.CD_MUN = d.CD_MUN) OR (r.CD_UF = p.CD_UF AND r.CD_MUN = p.CD_MUN)",
  "firstCityId": "1100015",
  "lastCityId": "5222302",
  "indicators": [
    { "id": "Ativo", "tid": "Ativo", "shortName": "Ativo" },
    { "id": "Ativo Financeiro", "tid": "Ativo Financeiro", "shortName": "Ativo Financeiro" },
    { "id": "Disponivel", "tid": "Disponivel", "shortName": "Disponivel" },
    { "id": "Caixa", "tid": "Caixa", "shortName": "Caixa" },
    { "id": "Bancos", "tid": "Bancos", "shortName": "Bancos" },
    { "id": "Aplic Financ", "tid": "Aplic Financ", "shortName": "Aplic Financ" },
    { "id": "Creditos Circul AF", "tid": "Creditos Circul AF", "shortName": "Creditos Circul AF" },
    { "id": "Cred a Receber", "tid": "Cred a Receber", "shortName": "Cred a Receber" },
    { "id": "Dep Realiz CP", "tid": "Dep Realiz CP", "shortName": "Dep Realiz CP" },
    { "id": "Out Valor Realiz", "tid": "Out Valor Realiz", "shortName": "Out Valor Realiz" },
    { "id": "Ativo N Fin", "tid": "Ativo N Fin", "shortName": "Ativo N Fin" },
    { "id": "Realiz CP", "tid": "Realiz CP", "shortName": "Realiz CP" },
    { "id": "Creditos Circul ANF", "tid": "Creditos Circul ANF", "shortName": "Creditos Circul ANF" },
    { "id": "Fornec Receber", "tid": "Fornec Receber", "shortName": "Fornec Receber" },
    { "id": "Creditos Parcelados", "tid": "Creditos Parcelados", "shortName": "Creditos Parcelados" },
    { "id": "Diversos Respons", "tid": "Diversos Respons", "shortName": "Diversos Respons" },
    { "id": "Emprest e Financ", "tid": "Emprest e Financ", "shortName": "Emprest e Financ" },
    { "id": "Adiantam Concedidos", "tid": "Adiantam Concedidos", "shortName": "Adiantam Concedidos" },
    { "id": "Recursos vinculados", "tid": "Recursos vinculados", "shortName": "Recursos vinculados" },
    { "id": "Out Cred Circul", "tid": "Out Cred Circul", "shortName": "Out Cred Circul" },
    { "id": "Provisao Dev Duvid", "tid": "Provisao Dev Duvid", "shortName": "Provisao Dev Duvid" },
    { "id": "Bens e Val Circul", "tid": "Bens e Val Circul", "shortName": "Bens e Val Circul" },
    { "id": "Estoques", "tid": "Estoques", "shortName": "Estoques" },
    { "id": "Out Bens Val Circul", "tid": "Out Bens Val Circul", "shortName": "Out Bens Val Circul" },
    { "id": "Valores Pendentes CP", "tid": "Valores Pendentes CP", "shortName": "Valores Pendentes CP" },
    { "id": "Desp Antecipadas", "tid": "Desp Antecipadas", "shortName": "Desp Antecipadas" },
    { "id": "Valores Diferidos", "tid": "Valores Diferidos", "shortName": "Valores Diferidos" },
    { "id": "Out Val Pend CP", "tid": "Out Val Pend CP", "shortName": "Out Val Pend CP" },
    { "id": "Realizavel LP", "tid": "Realizavel LP", "shortName": "Realizavel LP" },
    { "id": "Dep Realiz LP", "tid": "Dep Realiz LP", "shortName": "Dep Realiz LP" },
    { "id": "Dep Compuls", "tid": "Dep Compuls", "shortName": "Dep Compuls" },
    { "id": "Recursos Vincul", "tid": "Recursos Vincul", "shortName": "Recursos Vincul" },
    { "id": "Cred Realiz LP", "tid": "Cred Realiz LP", "shortName": "Cred Realiz LP" },
    { "id": "Divida Ativa", "tid": "Divida Ativa", "shortName": "Divida Ativa" },
    { "id": "Deved Entid Agente", "tid": "Deved Entid Agente", "shortName": "Deved Entid Agente" },
    { "id": "Emprest Financ", "tid": "Emprest Financ", "shortName": "Emprest Financ" },
    { "id": "Creditos a Receber", "tid": "Creditos a Receber", "shortName": "Creditos a Receber" },
    { "id": "Prov Perdas Provav LP", "tid": "Prov Perdas Provav LP", "shortName": "Prov Perdas Provav LP" },
    { "id": "Permanente", "tid": "Permanente", "shortName": "Permanente" },
    { "indicatorRowId": "Investimentos", "id": "Investimentos Ativo", "tid": "Investimentos Ativo", "shortName": "Investimentos Ativo" },
    { "id": "Partic Societaria", "tid": "Partic Societaria", "shortName": "Partic Societaria" },
    { "id": "Out Investimentos", "tid": "Out Investimentos", "shortName": "Out Investimentos" },
    { "id": "Prov Perdas Provav Perm", "tid": "Prov Perdas Provav Perm", "shortName": "Prov Perdas Provav Perm" },
    { "id": "Imobilizado", "tid": "Imobilizado", "shortName": "Imobilizado" },
    { "id": "Bens Moveis Imoveis", "tid": "Bens Moveis Imoveis", "shortName": "Bens Moveis Imoveis" },
    { "id": "Titulos Valores", "tid": "Titulos Valores", "shortName": "Titulos Valores" },
    { "id": "Deprec Amort Ex", "tid": "Deprec Amort Ex", "shortName": "Deprec Amort Ex" },
    { "indicatorRowId": "Diferido", "id": "Diferido Ativo", "tid": "Diferido Ativo", "shortName": "Diferido Ativo" },
    { "id": "Desp Diferidas", "tid": "Desp Diferidas", "shortName": "Desp Diferidas" },
    { "id": "Amortiz Acumulada", "tid": "Amortiz Acumulada", "shortName": "Amortiz Acumulada" },
    { "id": "Ativo Real", "tid": "Ativo Real", "shortName": "Ativo Real" },
    { "id": "Ativo Compensado", "tid": "Ativo Compensado", "shortName": "Ativo Compensado" },
    { "id": "Resp Titulo Val", "tid": "Resp Titulo Val", "shortName": "Resp Titulo Val" },
    { "id": "Garantias", "tid": "Garantias", "shortName": "Garantias" },
    { "id": "Convenios Contratos", "tid": "Convenios Contratos", "shortName": "Convenios Contratos" },
    { "id": "Out Compensac", "tid": "Out Compensac", "shortName": "Out Compensac" },
    { "id": "Despesas Orçamentárias", "tid": "Despesas Orçamentárias", "shortName": "Despesas Orçamentárias" },
    { "id": "Desp Correntes", "tid": "Desp Correntes", "shortName": "Desp Correntes" },
    { "id": "Desp de Custeio", "tid": "Desp de Custeio", "shortName": "Desp de Custeio" },
    { "id": "Desp de Pessoal", "tid": "Desp de Pessoal", "shortName": "Desp de Pessoal" },
    { "id": "Pessoal Ativos", "tid": "Pessoal Ativos", "shortName": "Pessoal Ativos" },
    { "id": "Obrigações Patronais", "tid": "Obrigações Patronais", "shortName": "Obrigações Patronais" },
    { "id": "Demais Desp de Pessoal", "tid": "Demais Desp de Pessoal", "shortName": "Demais Desp de Pessoal" },
    { "id": "Terceirização de Mão de Obra", "tid": "Terceirização de Mão de Obra", "shortName": "Terceirização de Mão de Obra" },
    { "id": "Outras Desp de Pessoal", "tid": "Outras Desp de Pessoal", "shortName": "Outras Desp de Pessoal" },
    { "id": "Serviços de Terceiros e Encargos", "tid": "Serviços de Terceiros e Encargos", "shortName": "Serviços de Terceiros e Encargos" },
    { "id": "Outros Custeio", "tid": "Outros Custeio", "shortName": "Outros Custeio" },
    { "id": "Desp com Transf Correntes", "tid": "Desp com Transf Correntes", "shortName": "Desp com Transf Correntes" },
    { "id": "Transf a Pessoas", "tid": "Transf a Pessoas", "shortName": "Transf a Pessoas" },
    { "id": "Pessoal Inativos", "tid": "Pessoal Inativos", "shortName": "Pessoal Inativos" },
    { "id": "Pessoal Pensionistas", "tid": "Pessoal Pensionistas", "shortName": "Pessoal Pensionistas" },
    { "id": "Salário Família", "tid": "Salário Família", "shortName": "Salário Família" },
    { "id": "Outra Trans a Pessoas", "tid": "Outra Trans a Pessoas", "shortName": "Outra Trans a Pessoas" },
    { "id": "Contr Form PASEP", "tid": "Contr Form PASEP", "shortName": "Contr Form PASEP" },
    { "id": "Juros e Encargos da Dívida", "tid": "Juros e Encargos da Dívida", "shortName": "Juros e Encargos da Dívida" },
    { "id": "Demais Desp Transf Correntes", "tid": "Demais Desp Transf Correntes", "shortName": "Demais Desp Transf Correntes" },
    { "id": "Outras Desp Correntes", "tid": "Outras Desp Correntes", "shortName": "Outras Desp Correntes" },
    { "id": "Despesas de Capital", "tid": "Despesas de Capital", "shortName": "Despesas de Capital" },
    { "indicatorRowId": "Investimentos", "id": "Investimentos Despesa", "tid": "Investimentos Despesa", "shortName": "Investimentos Despesa" },
    { "id": "Inversões Financeiras", "tid": "Inversões Financeiras", "shortName": "Inversões Financeiras" },
    { "id": "Desp Transf de Capital", "tid": "Desp Transf de Capital", "shortName": "Desp Transf de Capital" },
    { "id": "Amortizações", "tid": "Amortizações", "shortName": "Amortizações" },
    { "id": "Outras Desp Transf Capital", "tid": "Outras Desp Transf Capital", "shortName": "Outras Desp Transf Capital" },
    { "id": "SUPERAVIT ou DEFICIT", "tid": "SUPERAVIT ou DEFICIT", "shortName": "SUPERAVIT ou DEFICIT" },
    { "id": "Legislativa", "tid": "Legislativa", "shortName": "Legislativa" },
    { "id": "Judiciária", "tid": "Judiciária", "shortName": "Judiciária" },
    { "id": "Planejamento", "tid": "Planejamento", "shortName": "Planejamento" },
    { "id": "Agricultura", "tid": "Agricultura", "shortName": "Agricultura" },
    { "id": "Educação e Cultura", "tid": "Educação e Cultura", "shortName": "Educação e Cultura" },
    { "id": "Habitação e Urbanismo", "tid": "Habitação e Urbanismo", "shortName": "Habitação e Urbanismo" },
    { "id": "Indústria e Comércio", "tid": "Indústria e Comércio", "shortName": "Indústria e Comércio" },
    { "id": "Saúde e Saneamento", "tid": "Saúde e Saneamento", "shortName": "Saúde e Saneamento" },
    { "id": "Assistência e Previdência", "tid": "Assistência e Previdência", "shortName": "Assistência e Previdência" },
    { "id": "Transporte", "tid": "Transporte", "shortName": "Transporte" },
    { "id": "Segurança Pública", "tid": "Segurança Pública", "shortName": "Segurança Pública" },
    { "id": "Desenvolvimento Regional", "tid": "Desenvolvimento Regional", "shortName": "Desenvolvimento Regional" },
    { "id": "Energia e Recursos Minerais", "tid": "Energia e Recursos Minerais", "shortName": "Energia e Recursos Minerais" },
    { "id": "Comunicações", "tid": "Comunicações", "shortName": "Comunicações" },
    { "id": "Outras", "tid": "Outras", "shortName": "Outras" },
    { "id": "Passivo", "tid": "Passivo", "shortName": "Passivo" },
    { "id": "Passivo Financeiro", "tid": "Passivo Financeiro", "shortName": "Passivo Financeiro" },
    { "id": "Depositos", "tid": "Depositos", "shortName": "Depositos" },
    { "id": "Consignacoes", "tid": "Consignacoes", "shortName": "Consignacoes" },
    { "id": "Depositos Diversos", "tid": "Depositos Diversos", "shortName": "Depositos Diversos" },
    { "id": "Obrigac em Circulacao", "tid": "Obrigac em Circulacao", "shortName": "Obrigac em Circulacao" },
    { "id": "Restos a pagar Processados", "tid": "Restos a pagar Processados", "shortName": "Restos a pagar Processados" },
    { "id": "Fornecedores Ex", "tid": "Fornecedores Ex", "shortName": "Fornecedores Ex" },
    { "id": "Fornecedores Ant", "tid": "Fornecedores Ant", "shortName": "Fornecedores Ant" },
    { "id": "Convenios a pagar", "tid": "Convenios a pagar", "shortName": "Convenios a pagar" },
    { "id": "Pessoal a pagar Ex", "tid": "Pessoal a pagar Ex", "shortName": "Pessoal a pagar Ex" },
    { "id": "Pesoal a pagar Ant", "tid": "Pesoal a pagar Ant", "shortName": "Pesoal a pagar Ant" },
    { "id": "Encargos Sociais RC", "tid": "Encargos Sociais RC", "shortName": "Encargos Sociais RC" },
    { "id": "Provisoes Diversas", "tid": "Provisoes Diversas", "shortName": "Provisoes Diversas" },
    { "id": "Obrigacoes Tributarias", "tid": "Obrigacoes Tributarias", "shortName": "Obrigacoes Tributarias" },
    { "id": "Debitos Divers aPG", "tid": "Debitos Divers aPG", "shortName": "Debitos Divers aPG" },
    { "id": "Restos a Pagar NP", "tid": "Restos a Pagar NP", "shortName": "Restos a Pagar NP" },
    { "id": "Restos a Liquidar", "tid": "Restos a Liquidar", "shortName": "Restos a Liquidar" },
    { "id": "Credores diversos", "tid": "Credores diversos", "shortName": "Credores diversos" },
    { "id": "Adiantamentos recebidos", "tid": "Adiantamentos recebidos", "shortName": "Adiantamentos recebidos" },
    { "id": "Outras Obrig a PG", "tid": "Outras Obrig a PG", "shortName": "Outras Obrig a PG" },
    { "id": "Passivo Nao Financeiro", "tid": "Passivo Nao Financeiro", "shortName": "Passivo Nao Financeiro" },
    { "id": "Obrigacoes em circ", "tid": "Obrigacoes em circ", "shortName": "Obrigacoes em circ" },
    { "indicatorRowId": "Diferido", "id": "Diferido Passivo", "tid": "Diferido Passivo", "shortName": "Diferido Passivo" },
    { "id": "Provisoes", "tid": "Provisoes", "shortName": "Provisoes" },
    { "id": "Opc Internas", "tid": "Opc Internas", "shortName": "Opc Internas" },
    { "id": "Opc Externas", "tid": "Opc Externas", "shortName": "Opc Externas" },
    { "id": "Adiantam Div Receb", "tid": "Adiantam Div Receb", "shortName": "Adiantam Div Receb" },
    { "id": "Outros Debitos a Pagar", "tid": "Outros Debitos a Pagar", "shortName": "Outros Debitos a Pagar" },
    { "id": "Val Pend Curto Prazo", "tid": "Val Pend Curto Prazo", "shortName": "Val Pend Curto Prazo" },
    { "id": "Valores Pendentes", "tid": "Valores Pendentes", "shortName": "Valores Pendentes" },
    { "id": "Exigivel Longo Prazo", "tid": "Exigivel Longo Prazo", "shortName": "Exigivel Longo Prazo" },
    { "id": "Dep Exig Longo P", "tid": "Dep Exig Longo P", "shortName": "Dep Exig Longo P" },
    { "id": "Obrig ex longo P", "tid": "Obrig ex longo P", "shortName": "Obrig ex longo P" },
    { "id": "LP OPC Internas", "tid": "LP OPC Internas", "shortName": "LP OPC Internas" },
    { "id": "LP OPC Externas", "tid": "LP OPC Externas", "shortName": "LP OPC Externas" },
    { "id": "Obrig Legais e Trib", "tid": "Obrig Legais e Trib", "shortName": "Obrig Legais e Trib" },
    { "id": "LP Obrig a Pagar", "tid": "LP Obrig a Pagar", "shortName": "LP Obrig a Pagar" },
    { "id": "Outras Exigibilidades", "tid": "Outras Exigibilidades", "shortName": "Outras Exigibilidades" },
    { "id": "Result Futuros", "tid": "Result Futuros", "shortName": "Result Futuros" },
    { "id": "Passivo Real", "tid": "Passivo Real", "shortName": "Passivo Real" },
    { "id": "Patrimonio Liquido", "tid": "Patrimonio Liquido", "shortName": "Patrimonio Liquido" },
    { "id": "Patrim Capital", "tid": "Patrim Capital", "shortName": "Patrim Capital" },
    { "id": "Reservas", "tid": "Reservas", "shortName": "Reservas" },
    { "id": "Resultado Acumulado", "tid": "Resultado Acumulado", "shortName": "Resultado Acumulado" },
    { "id": "Passivo Compensado", "tid": "Passivo Compensado", "shortName": "Passivo Compensado" },
    { "id": "Rec Orçamentária", "tid": "Rec Orçamentária", "shortName": "Rec Orçamentária" },
    { "id": "Rec Correntes", "tid": "reccor", "shortName": "Rec Correntes" },
    { "id": "Rec Tributária", "tid": "Rec Tributária", "shortName": "Rec Tributária" },
    { "id": "Impostos", "tid": "Impostos", "shortName": "Impostos" },
    { "id": "IPTU", "tid": "IPTU", "shortName": "IPTU" },
    { "id": "ISS", "tid": "ISS", "shortName": "ISS" },
    { "id": "ITBI", "tid": "ITBI", "shortName": "ITBI" },
    { "id": "Taxas", "tid": "Taxas", "shortName": "Taxas" },
    { "id": "Tx Poder de Policia", "tid": "Tx Poder de Policia", "shortName": "Tx Poder de Policia" },
    { "id": "TX Prestação de Servicos", "tid": "TX Prestação de Servicos", "shortName": "TX Prestação de Servicos" },
    { "id": "Contr de Melhoria", "tid": "Contr de Melhoria", "shortName": "Contr de Melhoria" },
    { "id": "Rec de Contribuição", "tid": "Rec de Contribuição", "shortName": "Rec de Contribuição" },
    { "id": "Contrib Custeio Previdência", "tid": "Contrib Custeio Previdência", "shortName": "Contrib Custeio Previdência" },
    { "id": "Comp Fin 201 CF", "tid": "Comp Fin 201 CF", "shortName": "Comp Fin 201 CF" },
    { "id": "Outras Rec de Contribuição", "tid": "Outras Rec de Contribuição", "shortName": "Outras Rec de Contribuição" },
    { "id": "Rec Patrimonial", "tid": "Rec Patrimonial", "shortName": "Rec Patrimonial" },
    { "id": "Rec Financeiras", "tid": "Rec Financeiras", "shortName": "Rec Financeiras" },
    { "id": "Outras rec Patrimoniais", "tid": "Outras rec Patrimoniais", "shortName": "Outras rec Patrimoniais" },
    { "id": "Rec Industrial", "tid": "Rec Industrial", "shortName": "Rec Industrial" },
    { "id": "Rec Agropecuária", "tid": "Rec Agropecuária", "shortName": "Rec Agropecuária" },
    { "id": "Rec de Serviços", "tid": "Rec de Serviços", "shortName": "Rec de Serviços" },
    { "id": "Rec Transf Correntes", "tid": "Rec Transf Correntes", "shortName": "Rec Transf Correntes" },
    { "id": "Transf Intergov da União", "tid": "Transf Intergov da União", "shortName": "Transf Intergov da União" },
    { "id": "Cota FPM", "tid": "Cota FPM", "shortName": "Cota FPM" },
    { "id": "IRRF", "tid": "IRRF", "shortName": "IRRF" },
    { "id": "Cota ITR", "tid": "Cota ITR", "shortName": "Cota ITR" },
    { "id": "Cota IOF Ouro", "tid": "Cota IOF Ouro", "shortName": "Cota IOF Ouro" },
    { "id": "LC 87_96 ICMS", "tid": "LC 87_96 ICMS", "shortName": "LC 87_96 ICMS" },
    { "id": "Cota Salário Educação União", "tid": "Cota Salário Educação União", "shortName": "Cota Salário Educação União" },
    { "id": "Fundef União", "tid": "Fundef União", "shortName": "Fundef União" },
    { "id": "SUS União", "tid": "SUS União", "shortName": "SUS União" },
    { "id": "Outras Transf da União", "tid": "Outras Transf da União", "shortName": "Outras Transf da União" },
    { "id": "Transf Intergov do Estado", "tid": "Transf Intergov do Estado", "shortName": "Transf Intergov do Estado" },
    { "id": "Cota ICMS", "tid": "Cota ICMS", "shortName": "Cota ICMS" },
    { "id": "Cota IPVA", "tid": "Cota IPVA", "shortName": "Cota IPVA" },
    { "id": "Cota IPI Exportação", "tid": "Cota IPI Exportação", "shortName": "Cota IPI Exportação" },
    { "id": "Cota Salário Educação Estado", "tid": "Cota Salário Educação Estado", "shortName": "Cota Salário Educação Estado" },
    { "id": "Fundef Estado", "tid": "Fundef Estado", "shortName": "Fundef Estado" },
    { "id": "SUS Estado", "tid": "SUS Estado", "shortName": "SUS Estado" },
    { "id": "Outras Transf Estado", "tid": "Outras Transf Estado", "shortName": "Outras Transf Estado" },
    { "id": "Outras Transf Correntes", "tid": "Outras Transf Correntes", "shortName": "Outras Transf Correntes" },
    { "id": "Demais Rec Correntes", "tid": "Demais Rec Correntes", "shortName": "Demais Rec Correntes" },
    { "id": "Rec Divida Ativa", "tid": "Rec Divida Ativa", "shortName": "Rec Divida Ativa" },
    { "id": "Outras Rec Correntes", "tid": "Outras Rec Correntes", "shortName": "Outras Rec Correntes" },
    { "id": "Rec de Capital", "tid": "Rec de Capital", "shortName": "Rec de Capital" },
    { "id": "Operações de Crédito", "tid": "Operações de Crédito", "shortName": "Operações de Crédito" },
    { "id": "Alienação", "tid": "Alienação", "shortName": "Alienação" },
    { "id": "Rec Transf de Capital", "tid": "Rec Transf de Capital", "shortName": "Rec Transf de Capital" },
    { "id": "Rec Transf de Capital União", "tid": "Rec Transf de Capital União", "shortName": "Rec Transf de Capital União" },
    { "id": "Rec Transf de Capital Estado", "tid": "Rec Transf de Capital Estado", "shortName": "Rec Transf de Capital Estado" },
    { "id": "Outras Rec Transf Capital", "tid": "Outras Rec Transf Capital", "shortName": "Outras Rec Transf Capital" },
    { "id": "Outras rec de Capital", "tid": "Outras rec de Capital", "shortName": "Outras rec de Capital" }
  ]
}
