{
  "name":"Comunicação e informática",
  "url":"ftp://ftp.ibge.gov.br/Perfil_Municipios/2009/base_MUNIC_2009.zip",
  "md5":"4ae39f54cf93c20dfe8bed385ff48b27",
  "fileInZip":"base.xls",
  "md5FileInZip":"2f0175cc2317a1d33e0495f802734dcc",
  "startRow": 1,
  "format":"xls.zip",
  "workbook":"Comunicação e informática",
  "years": [2009],
  "cityIdColumn": 0,
  "indicatorStartColumn": 1,
  "indicatorRow": 0,
  "firstCityId":"1100015",
  "lastCityId":"5300108",
  "indicators": [
    {"id":"A130","shortName":"Meios de comunicação utilizados para contato com o público: Correio"},
    {"id":"A131","shortName":"Meios de comunicação utilizados para contato com o público: Fax"},
    {"id":"A132","shortName":"Meios de comunicação utilizados para contato com o público: Jornais"},
    {"id":"A133","shortName":"Meios de comunicação utilizados para contato com o público: Internet (página, portal, home-page, e-mail)"},
    {"id":"A134","shortName":"Meios de comunicação utilizados para contato com o público: Telefone convencional"},
    {"id":"A135","shortName":"Meios de comunicação utilizados para contato com o público: Telefone dedicado exclusivamente para atender ao público"},
    {"id":"A136","shortName":"Meios de comunicação utilizados para contato com o público: Outros serviços disponíveis"},
    {"id":"A137","shortName":"Meios de comunicação utilizados para contato com o público: Não disponibiliza"},
    {"id":"A138","shortName":"A administração direta possui computadores em funcionamento"},
    {"id":"A139","shortName":"Esses computadores estão ligados em rede"},
    {"id":"A140","shortName":"Computadores com acesso a internet"},
    {"id":"A141","shortName":"Computadores com acesso a internet - Forma de acesso à internet"},
    {"id":"A142","shortName":"A página na internet da prefeitura está"},
    {"id":"A143","shortName":"Endereço da página na internet da prefeitura: www."},
    {"id":"A144","shortName":"A página da internet da prefeitura pode ser classificada como"},
    {"id":"A145","shortName":"Serviços disponibilizados na página: Serviços informativos do município e notícias"},
    {"id":"A146","shortName":"Serviços disponibilizados na página: Acesso a documentos e formulários"},
    {"id":"A147","shortName":"Serviços disponibilizados na página: Licitações"},
    {"id":"A148","shortName":"Serviços disponibilizados na página: Ouvidoria, serviço de atendimento ao cidadão"},
    {"id":"A149","shortName":"Serviços disponibilizados na página: Pregão eletrônico"},
    {"id":"A150","shortName":"Serviços disponibilizados na página: Consulta a processos"},
    {"id":"A151","shortName":"Serviços disponibilizados na página: Consulta prévia (obtenção de alvará provisório)"},
    {"id":"A152","shortName":"Serviços disponibilizados na página: Diário oficial, legislação municipal e finanças públicas"},
    {"id":"A153","shortName":"Serviços disponibilizados na página: Concursos públicos"},
    {"id":"A154","shortName":"Serviços disponibilizados na página: Matrícula escolar na rede pública on line"},
    {"id":"A155","shortName":"Serviços disponibilizados na página: Emissão de certidão negativa de débito e alvará"},
    {"id":"A156","shortName":"Serviços disponibilizados na página: Agendamento de consulta na rede pública de saúde"},
    {"id":"A157","shortName":"Serviços disponibilizados na página: Outros"},
    {"id":"A158","shortName":"A página na internet da prefeitura é acessível a pessoas com deficiência"},
    {"id":"A159","shortName":"A prefeitura garante o acesso ao público aos serviços disponibilizados na sua página na internet através: Quiosque ou balcão informatizado em locais de grande circulação de público"},
    {"id":"A160","shortName":"A prefeitura garante o acesso ao público aos serviços disponibilizados na sua página na internet através: Instalações públicas governamentais"},
    {"id":"A161","shortName":"A prefeitura garante o acesso ao público aos serviços disponibilizados na sua página na internet através: Outros"},
    {"id":"A162","shortName":"A prefeitura garante o acesso ao público aos serviços disponibilizados na sua página na internet através: Não garante acesso"},
    {"id":"A163","shortName":"A prefeitura desenvolve política ou plano de inclusão digital"},
    {"id":"A164","shortName":"Projetos e ações implementados por esta política: Criação de Telecentros por iniciativa da prefeitura"},
    {"id":"A165","shortName":"Projetos e ações implementados por esta política: Criação de Telecentros por iniciativa da prefeitura - Número de Telecentros em funcionamento"},
    {"id":"A166","shortName":"Projetos e ações implementados por esta política: Criação de Telecentros por iniciativa da prefeitura - Quantos contam também com recurso federal"},
    {"id":"A167","shortName":"Projetos e ações implementados por esta política: Computadores com acesso à internet disponibilizados para uso do público em geral"},
    {"id":"A168","shortName":"Projetos e ações implementados por esta política: Instalação de computadores na rede pública municipal de ensino com acesso à internet"},
    {"id":"A169","shortName":"Projetos e ações implementados por esta política: Outros"}
  ]
}
