{
  "name":"Esporte",
  "url":"ftp://ftp.ibge.gov.br/Perfil_Municipios/2009/base_MUNIC_2009.zip",
  "md5":"4ae39f54cf93c20dfe8bed385ff48b27",
  "fileInZip":"base.xls",
  "md5FileInZip":"2f0175cc2317a1d33e0495f802734dcc",
  "startRow": 1,
  "format":"xls.zip",
  "workbook":"Esporte",
  "years": [2009],
  "cityIdColumn": 0,
  "indicatorStartColumn": 1,
  "indicatorRow": 0,
  "firstCityId":"1100015",
  "lastCityId":"5300108",
  "indicators": [
    {"id":"A299","shortName":"Caracterização do órgão gestor do esporte no município"},
    {"id":"A300","shortName":"A lei orgânica do município trata do esporte"},
    {"id":"A301","shortName":"Existem outros instrumentos legais que tratem do esporte"},
    {"id":"A302","shortName":"Objetos regulamentados por estes instrumentos: Sistema municipal de esporte"},
    {"id":"A303","shortName":"Objetos regulamentados por estes instrumentos: Conselho municipal de esporte"},
    {"id":"A304","shortName":"Objetos regulamentados por estes instrumentos: Concessão de incentivos e isenções fiscais para o esporte"},
    {"id":"A305","shortName":"Objetos regulamentados por estes instrumentos: Fundo municipal do esporte"},
    {"id":"A306","shortName":"Objetos regulamentados por estes instrumentos: Bolsa atleta"},
    {"id":"A307","shortName":"Objetos regulamentados por estes instrumentos: Subvenções concedidas para o esporte"},
    {"id":"A308","shortName":"Objetos regulamentados por estes instrumentos: Projetos esportivos"},
    {"id":"A309","shortName":"Objetos regulamentados por estes instrumentos: Outros"},
    {"id":"A310","shortName":"Conselho municipal de esporte - existência"},
    {"id":"A311","shortName":"Conselho municipal de esporte - Ano de criação"},
    {"id":"A312","shortName":"Conselho municipal de esporte - O conselho é paritário"},
    {"id":"A313","shortName":"Conselho municipal de esporte - Caráter do conselho: Consultivo"},
    {"id":"A314","shortName":"Conselho municipal de esporte - Caráter do conselho: Deliberativo"},
    {"id":"A315","shortName":"Conselho municipal de esporte - Caráter do conselho: Normativo"},
    {"id":"A316","shortName":"Conselho municipal de esporte - Caráter do conselho: Fiscalizador"},
    {"id":"A317","shortName":"Conselho municipal de esporte - O conselho realizou reunião nos últimos 12 meses"},
    {"id":"A318","shortName":"A prefeitura executa ações, projetos e/ou programas isoladamente ou convênio e/ou parceria com outras entidades: No esporte educacional"},
    {"id":"A319","shortName":"A prefeitura executa ações, projetos e/ou programas isoladamente ou convênio e/ou parceria com outras entidades: No esporte de rendimento"},
    {"id":"A320","shortName":"A prefeitura executa ações, projetos e/ou programas isoladamente ou convênio e/ou parceria com outras entidades: No esporte e lazer"},
    {"id":"A321","shortName":"A prefeitura executa ações, projetos e/ou programas isoladamente ou convênio e/ou parceria com outras entidades: No esporte para pessoa com deficiência"},
    {"id":"A322","shortName":"A prefeitura tem conhecimento da existência de ligas esportivas regularmente constituídas"},
    {"id":"A323","shortName":"A prefeitura tem calendário esportivo"}
  ]
}
