{
  "name":"Estrutura política",
  "url":"ftp://ftp.ibge.gov.br/Perfil_Municipios/2004/base_MUNIC_2004.zip",
  "md5":"dcf7caf734c62f82950c948e95603355",
  "fileInZip":"Base 2004.xls",
  "md5FileInZip":"b4352b949513a78c2626870c0fe63df9",
  "startRow": 1,
  "format":"xls.zip",
  "workbook":"Estrutura política",
  "years": [2004],
  "cityIdColumn": 0,
  "indicatorStartColumn": 1,
  "indicatorRow": 0,
  "firstCityId":"1100015",
  "lastCityId":"5300108",
  "indicators": [
    { "shortName": "Nome do prefeito", "id": "A2" },
    {"id": "A3", "shortName": "Partido do prefeito atual" }
  ]
}
