{
  "name":"Programas ou ações na área de habitação",
  "url":"ftp://ftp.ibge.gov.br/Perfil_Municipios/2004/base_MUNIC_2004.zip",
  "md5":"dcf7caf734c62f82950c948e95603355",
  "fileInZip":"Base 2004.xls",
  "md5FileInZip":"b4352b949513a78c2626870c0fe63df9",
  "startRow": 1,
  "format":"xls.zip",
  "workbook":"Habitação Programas",
  "years": [2004],
  "cityIdColumn": 0,
  "indicatorStartColumn": 1,
  "indicatorRow": 0,
  "firstCityId":"1100015",
  "lastCityId":"5300108",
  "indicators": [
    {"id":"A72","shortName":"Órgão específico para implementação de política habitacional"},
    {"id":"A73","shortName":"Cadastro ou levantamento de famílias interessadas em programas habitacionais"},
    {"id":"A74","shortName":"Cadastro informatizado de famílias interessadas em programas habitacionais"},
    {"id":"A75","shortName":"Executou programas ou ações na área de habitação"},
    {"id":"A76","shortName":"Construção de unidades - existência"},
    {"id":"A77","shortName":"Construção de unidades - Por iniciativa exclusiva da prefeitura"},
    {"id":"A78","shortName":"Construção de unidades - Em convênio(s) da prefeitura com outros órgão(s) público(s) ou privados"},
    {"id":"A79","shortName":"Urbanização de assentamentos - existência"},
    {"id":"A80","shortName":"Urbanização de assentamentos - Por iniciativa exclusiva da prefeitura"},
    {"id":"A81","shortName":"Urbanização de assentamentos - Em convênio(s) da prefeitura com outros órgão(s) público(s) ou privados"},
    {"id":"A82","shortName":"Oferta de material de construção - existência"},
    {"id":"A83","shortName":"Oferta de material de construção -xistênci Por iniciativa exclusiva da prefeitura"},
    {"id":"A84","shortName":"Oferta de material de construção -xistênci Em convênio(s) da prefeitura com outros órgão(s) público(s) ou privados"},
    {"id":"A85","shortName":"Oferta de lotes - existência"},
    {"id":"A86","shortName":"Oferta de lotes - Por iniciativa exclusiva da prefeitura"},
    {"id":"A87","shortName":"Oferta de lotes - Em convênio(s) da prefeitura com outros órgão(s) público(s) ou privados"},
    {"id":"A88","shortName":"Regularização fundiária - existência"},
    {"id":"A89","shortName":"Regularização fundiária - Por iniciativa exclusiva da prefeitura"},
    {"id":"A90","shortName":"Regularização fundiária - Em convênio(s) da prefeitura com outros órgão(s) público(s) ou privados"},
    {"id":"A91","shortName":"Dentre os programas executados, algum tratou especificamente de regularização de loteamento"},
    {"id":"A92","shortName":"Outros - existência"},
    {"id":"A93","shortName":"Consórcio intermunicipal que atue na área de habitação"}
  ]
}
