{
  "name":"Juizados especiais e delegacia de mulheres",
  "url":"ftp://ftp.ibge.gov.br/Perfil_Municipios/2004/base_MUNIC_2004.zip",
  "md5":"dcf7caf734c62f82950c948e95603355",
  "fileInZip":"Base 2004.xls",
  "md5FileInZip":"b4352b949513a78c2626870c0fe63df9",
  "startRow": 1,
  "format":"xls.zip",
  "workbook":"Juizados especiais",
  "years": [2004],
  "cityIdColumn": 0,
  "indicatorStartColumn": 1,
  "indicatorRow": 0,
  "firstCityId":"1100015",
  "lastCityId":"5300108",
  "indicators": [
    {"id":"A117","shortName":"Juizados especiais cíveis - existência"},
    {"id":"A118","shortName":"Juizados especiais cíveis - Quantidade"},
    {"id":"A119","shortName":"Juizados especiais criminais - existência"},
    {"id":"A120","shortName":"Juizados especiais criminais - Quantidade"},
    {"id":"A121","shortName":"Delegacia de mulheres - existência"},
    {"id":"A122","shortName":"Delegacia de mulheres - Quantidade"}
  ]
}
