{
  "name":"Trabalho e inclusão produtiva",
  "url":"ftp://ftp.ibge.gov.br/Perfil_Municipios/2018/Base_de_Dados/Base_MUNIC_2018_xls.zip",
  "md5":"402da28687e1004b5830aef587e7db7a",
  "fileInZip":"Base_MUNIC_2018.xlsx",
  "md5FileInZip":"1724122ca6c6bc37f18e42cdf493553b",
  "startRow": 1,
  "format":"xlsx.zip",
  "workbook":"Trabalho e inclusão produtiva",
  "years": [2018],
  "cityIdColumn": 0,
  "indicatorStartColumn": 1,
  "indicatorRow": 0,
  "firstCityId": "1100015",
  "lastCityId": "5300108",
  "indicators": [
    {"id":"MTIP01","shortName":"Existe algum tipo de estudo setorial e/ou diagnóstico socioeconômico do município que tenha sido realizado no período entre 2015 e 2017" },
    {"id":"MTIP011","shortName":"Existe algum tipo de estudo setorial e/ou diagnóstico socioeconômico do município que tenha sido realizado no período entre 2015 e 2017 - Ano do diagnóstico" },
    {"id":"MTIP021","shortName":"Existe algum tipo de estudo setorial e/ou diagnóstico socioeconômico do município que tenha sido realizado no período entre 2015 e 2017 - Órgão responsável pela elaboração do diagnóstico: Agricultura" },
    {"id":"MTIP022","shortName":"Existe algum tipo de estudo setorial e/ou diagnóstico socioeconômico do município que tenha sido realizado no período entre 2015 e 2017 - Órgão responsável pela elaboração do diagnóstico: Assistência social" },
    {"id":"MTIP023","shortName":"Existe algum tipo de estudo setorial e/ou diagnóstico socioeconômico do município que tenha sido realizado no período entre 2015 e 2017 - Órgão responsável pela elaboração do diagnóstico: Fazenda" },
    {"id":"MTIP024","shortName":"Existe algum tipo de estudo setorial e/ou diagnóstico socioeconômico do município que tenha sido realizado no período entre 2015 e 2017 - Órgão responsável pela elaboração do diagnóstico: Planejamento" },
    {"id":"MTIP025","shortName":"Existe algum tipo de estudo setorial e/ou diagnóstico socioeconômico do município que tenha sido realizado no período entre 2015 e 2017 - Órgão responsável pela elaboração do diagnóstico: Trabalho" },
    {"id":"MTIP026","shortName":"Existe algum tipo de estudo setorial e/ou diagnóstico socioeconômico do município que tenha sido realizado no período entre 2015 e 2017 - Órgão responsável pela elaboração do diagnóstico: Desenvolvimento econômico" },
    {"id":"MTIP027","shortName":"Existe algum tipo de estudo setorial e/ou diagnóstico socioeconômico do município que tenha sido realizado no período entre 2015 e 2017 - Órgão responsável pela elaboração do diagnóstico: Outro órgão" },
    {"id":"MTIP028","shortName":"Existe algum tipo de estudo setorial e/ou diagnóstico socioeconômico do município que tenha sido realizado no período entre 2015 e 2017 - Órgão responsável pela elaboração do diagnóstico: Não sabe informar" },
    {"id":"MTIP03","shortName":"O município desenvolve ações, programas ou projetos de inclusão produtiva para a geração de trabalho e renda" },
    {"id":"MTIP041","shortName":"O município desenvolve ações, programas ou projetos de inclusão produtiva para a geração de trabalho e renda - Órgão gestor responsável pelas ações, programas ou projetos: Agricultura" },
    {"id":"MTIP042","shortName":"O município desenvolve ações, programas ou projetos de inclusão produtiva para a geração de trabalho e renda - Órgão gestor responsável pelas ações, programas ou projetos: Assistência social" },
    {"id":"MTIP043","shortName":"O município desenvolve ações, programas ou projetos de inclusão produtiva para a geração de trabalho e renda - Órgão gestor responsável pelas ações, programas ou projetos: Fazenda" },
    {"id":"MTIP044","shortName":"O município desenvolve ações, programas ou projetos de inclusão produtiva para a geração de trabalho e renda - Órgão gestor responsável pelas ações, programas ou projetos: Planejamento" },
    {"id":"MTIP045","shortName":"O município desenvolve ações, programas ou projetos de inclusão produtiva para a geração de trabalho e renda - Órgão gestor responsável pelas ações, programas ou projetos: Trabalho" },
    {"id":"MTIP046","shortName":"O município desenvolve ações, programas ou projetos de inclusão produtiva para a geração de trabalho e renda - Órgão gestor responsável pelas ações, programas ou projetos: Desenvolvimento econômico" },
    {"id":"MTIP047","shortName":"O município desenvolve ações, programas ou projetos de inclusão produtiva para a geração de trabalho e renda - Órgão gestor responsável pelas ações, programas ou projetos: Outro órgão" },
    {"id":"MTIP048","shortName":"O município desenvolve ações, programas ou projetos de inclusão produtiva para a geração de trabalho e renda - Órgão gestor responsável pelas ações, programas ou projetos: Não sabe informar" },
    {"id":"MTIP05","shortName":"O município desenvolve ações, programas ou projetos de inclusão produtiva rural" },
    {"id":"MTIP061","shortName":"O município desenvolve ações, programas ou projetos de inclusão produtiva rural - Ações de assistência técnica e extensão rural" },
    {"id":"MTIP062","shortName":"O município desenvolve ações, programas ou projetos de inclusão produtiva rural - Ações de fomento a atividades produtivas" },
    {"id":"MTIP063","shortName":"O município desenvolve ações, programas ou projetos de inclusão produtiva rural - Ações de incentivo para acesso ao crédito e ao seguro rural" },
    {"id":"MTIP064","shortName":"O município desenvolve ações, programas ou projetos de inclusão produtiva rural - Ações de aquisição ou empréstimo de tratores e implementos agrícolas" },
    {"id":"MTIP065","shortName":"O município desenvolve ações, programas ou projetos de inclusão produtiva rural - Ações de doação de sementes ou matrizes de pequenos animais" },
    {"id":"MTIP066","shortName":"O município desenvolve ações, programas ou projetos de inclusão produtiva rural - Ações de aquisição de alimentos no âmbito do Programa de Aquisição de Alimentos (PAA) ou do Programa Nacional de Alimentação Escolar (PNAE)" },
    {"id":"MTIP067","shortName":"O município desenvolve ações, programas ou projetos de inclusão produtiva rural - Ações de aquisição de alimentos para atender a demandas regulares de restaurantes universitários, presídios, hospitais, entre outros" },
    {"id":"MTIP068","shortName":"O município desenvolve ações, programas ou projetos de inclusão produtiva rural - Ações de apoio a transporte, armazenagem, comercialização e distribuição de alimentos (18)" },
    {"id":"MTIP069","shortName":"O município desenvolve ações, programas ou projetos de inclusão produtiva rural - Ações de fomento a empreendimentos coletivos rurais (associativismo, cooperativismo e economia solidária)" },
    {"id":"MTIP0610","shortName":"O município desenvolve ações, programas ou projetos de inclusão produtiva rural - Ações de assistência técnico-gerencial a empreendimentos coletivos rurais (para formalização, melhora da produção, aspectos jurídicos e comerciais)" },
    {"id":"MTIP07","shortName":"O município desenvolve ações, programas ou projetos de qualificação profissional e intermediação de mão de obra" },
    {"id":"MTIP081","shortName":"O município desenvolve ações, programas ou projetos de qualificação profissional e intermediação de mão de obra - Ações de qualificação profissional" },
    {"id":"MTIP082","shortName":"O município desenvolve ações, programas ou projetos de qualificação profissional e intermediação de mão de obra - Ações de intermediação de mão de obra" },
    {"id":"MTIP083","shortName":"O município desenvolve ações, programas ou projetos de qualificação profissional e intermediação de mão de obra - A ções de mobilização e sensibilização para cursos de qualificação profissional" },
    {"id":"MTIP09","shortName":"O município desenvolve ações, programas ou projetos de inclusão produtiva urbana" },
    {"id":"MTIP101","shortName":"O município desenvolve ações, programas ou projetos de inclusão produtiva urbana - Ações de fomento a empreendimentos individuais urbanos" },
    {"id":"MTIP102","shortName":"O município desenvolve ações, programas ou projetos de inclusão produtiva urbana - Ações fomento a empreendimentos coletivos urbanos (Associativismo, Cooperativismo e Economia Solidária urbana e outros grupos não formalizados)" },
    {"id":"MTIP103","shortName":"O município desenvolve ações, programas ou projetos de inclusão produtiva urbana - Ações de assistência técnico-gerencial a empreendimentos individuais urbanos (para formalização, melhora da produção, aspectos jurídicos e comerciais)" },
    {"id":"MTIP104","shortName":"O município desenvolve ações, programas ou projetos de inclusão produtiva urbana - Ações de incubação de empreendimentos" },
    {"id":"MTIP105","shortName":"O município desenvolve ações, programas ou projetos de inclusão produtiva urbana - Ações de fomento ao artesanato" },
    {"id":"MTIP106","shortName":"O município desenvolve ações, programas ou projetos de inclusão produtiva urbana - Ações de doação de equipamentos ou kit básico para desempenho do trabalho" },
    {"id":"MTIP11","shortName":"O município desenvolve ações, programas ou projetos de crédito, microcrédito e seguro" },
    {"id":"MTIP121","shortName":"O município desenvolve ações, programas ou projetos de crédito, microcrédito e seguro - Ações para promover o acesso a microcrédito produtivo orientado (Programa CRESCER e/ou similar)" },
    {"id":"MTIP122","shortName":"O município desenvolve ações, programas ou projetos de crédito, microcrédito e seguro - Ações de acesso a crédito por meio do Banco do Povo ou outras organizações congêneres" },
    {"id":"MTIP123","shortName":"O município desenvolve ações, programas ou projetos de crédito, microcrédito e seguro - Ações de acesso a crédito do Proger urbano" },
    {"id":"MTIP13","shortName":"O município desenvolve ações, programas ou projetos de geração de trabalho e renda" },
    {"id":"MTIP141","shortName":"O município desenvolve ações, programas ou projetos de geração de trabalho e renda - Projeto(s) de apoio à comercialização de negócios, cooperativas e empreendimentos solidários" },
    {"id":"MTIP142","shortName":"O município desenvolve ações, programas ou projetos de geração de trabalho e renda - Projeto(s) de apoio ao associativismo, cooperativismo e economia solidária" }
  ]
}
