{
  "name":"Crédito, microcrédito e seguro",
  "url":"ftp://ftp.ibge.gov.br/Perfil_Municipios/Inclusao_Produtiva_2014/base_inclusao_produtiva_MUNIC_xls_2014.zip",
  "md5":"188ac6e75f32702f6ac123ade61481b0",
  "fileInZip":"munic2014.xls",
  "md5FileInZip":"24b5841500dea6f87fc974f2068d0e74",
  "startRow": 1,
  "format":"xls.zip",
  "workbook":"Crédito mcrocredito seguro",
  "years": [2014],
  "cityIdColumn": 0,
  "indicatorStartColumn": 1,
  "indicatorRow": 0,
  "firstCityId":"1100015",
  "lastCityId":"5300108",
  "indicators": [
    { "id": "A434", "shortName": "Governo municipal desenvolve ações para promover o acesso a microcrédito produtivo orientado (8)" },
    { "id": "A435", "shortName": "Governo municipal desenvolve ações para promover o acesso a microcrédito produtivo orientado (8) - Grupos para os quais as ações estão voltadas" },
    { "id": "A436", "shortName": "Governo municipal desenvolve ações para promover o acesso a microcrédito produtivo orientado (8) - Grupos para os quais as ações estão voltadas: Desempregados" },
    { "id": "A437", "shortName": "Governo municipal desenvolve ações para promover o acesso a microcrédito produtivo orientado (8) - Grupos para os quais as ações estão voltadas: Inscritos no Cadastro Único para Programas Sociais" },
    { "id": "A438", "shortName": "Governo municipal desenvolve ações para promover o acesso a microcrédito produtivo orientado (8) - Grupos para os quais as ações estão voltadas: Beneficiários do Programa Bolsa Família" },
    { "id": "A439", "shortName": "Governo municipal desenvolve ações para promover o acesso a microcrédito produtivo orientado (8) - Grupos para os quais as ações estão voltadas: Egressos de cursos de qualificação profissional" },
    { "id": "A440", "shortName": "Governo municipal desenvolve ações para promover o acesso a microcrédito produtivo orientado (8) - Grupos para os quais as ações estão voltadas: Catadores de materiais recicláveis" },
    { "id": "A441", "shortName": "Governo municipal desenvolve ações para promover o acesso a microcrédito produtivo orientado (8) - Grupos para os quais as ações estão voltadas: População em situação de rua" },
    { "id": "A442", "shortName": "Governo municipal desenvolve ações para promover o acesso a microcrédito produtivo orientado (8) - Grupos para os quais as ações estão voltadas: Outros" },
    { "id": "A443", "shortName": "Governo municipal desenvolve ações para promover o acesso a microcrédito produtivo orientado (8) - Grupos para os quais as ações estão voltadas: Outros - Especifique" },
    { "id": "A444", "shortName": "Governo municipal desenvolve ações para promover o acesso a microcrédito produtivo orientado (8) - Parceiros responsáveis pela implementação" },
    { "id": "A445", "shortName": "Governo municipal desenvolve ações para promover o acesso a microcrédito produtivo orientado (8) - Parceiros responsáveis pela implementação: Governo federal" },
    { "id": "A446", "shortName": "Governo municipal desenvolve ações para promover o acesso a microcrédito produtivo orientado (8) - Parceiros responsáveis pela implementação: Governo estadual" },
    { "id": "A447", "shortName": "Governo municipal desenvolve ações para promover o acesso a microcrédito produtivo orientado (8) - Parceiros responsáveis pela implementação: ONGs e entidades do terceiro setor (1)" },
    { "id": "A448", "shortName": "Governo municipal desenvolve ações para promover o acesso a microcrédito produtivo orientado (8) - Parceiros responsáveis pela implementação: Sistema S (2)" },
    { "id": "A449", "shortName": "Governo municipal desenvolve ações para promover o acesso a microcrédito produtivo orientado (8) - Parceiros responsáveis pela implementação: Universidades, Institutos de ensino técnico e profissional" },
    { "id": "A450", "shortName": "Governo municipal desenvolve ações para promover o acesso a microcrédito produtivo orientado (8) - Parceiros responsáveis pela implementação: Entidades de classe de trabalhadores" },
    { "id": "A451", "shortName": "Governo municipal desenvolve ações para promover o acesso a microcrédito produtivo orientado (8) - Parceiros responsáveis pela implementação: Entidades de classe patronais" },
    { "id": "A452", "shortName": "Governo municipal desenvolve ações para promover o acesso a microcrédito produtivo orientado (8) - Parceiros responsáveis pela implementação: Bancos públicos" },
    { "id": "A453", "shortName": "Governo municipal desenvolve ações para promover o acesso a microcrédito produtivo orientado (8) - Parceiros responsáveis pela implementação: Bancos privados" },
    { "id": "A454", "shortName": "Governo municipal desenvolve ações para promover o acesso a microcrédito produtivo orientado (8) - Parceiros responsáveis pela implementação: Cooperativas de crédito" },
    { "id": "A455", "shortName": "Governo municipal desenvolve ações para promover o acesso a microcrédito produtivo orientado (8) - Parceiros responsáveis pela implementação: Outros" },
    { "id": "A456", "shortName": "Governo municipal desenvolve ações de acesso a crédito por meio do Banco do Povo ou outras organizações congêneres" },
    { "id": "A457", "shortName": "Governo municipal desenvolve ações de acesso a crédito por meio do Banco do Povo ou outras organizações congêneres - Grupos para os quais as ações estão voltadas" },
    { "id": "A458", "shortName": "Governo municipal desenvolve ações de acesso a crédito por meio do Banco do Povo ou outras organizações congêneres - Grupos para os quais as ações estão voltadas: Desempregados" },
    { "id": "A459", "shortName": "Governo municipal desenvolve ações de acesso a crédito por meio do Banco do Povo ou outras organizações congêneres - Grupos para os quais as ações estão voltadas: Inscritos no Cadastro Único para Programas Sociais" },
    { "id": "A460", "shortName": "Governo municipal desenvolve ações de acesso a crédito por meio do Banco do Povo ou outras organizações congêneres - Grupos para os quais as ações estão voltadas: Beneficiários do Programa Bolsa Família" },
    { "id": "A461", "shortName": "Governo municipal desenvolve ações de acesso a crédito por meio do Banco do Povo ou outras organizações congêneres - Grupos para os quais as ações estão voltadas: Egressos de cursos de qualificação profissional" },
    { "id": "A462", "shortName": "Governo municipal desenvolve ações de acesso a crédito por meio do Banco do Povo ou outras organizações congêneres - Grupos para os quais as ações estão voltadas: Catadores de materiais recicláveis" },
    { "id": "A463", "shortName": "Governo municipal desenvolve ações de acesso a crédito por meio do Banco do Povo ou outras organizações congêneres - Grupos para os quais as ações estão voltadas: População em situação de rua" },
    { "id": "A464", "shortName": "Governo municipal desenvolve ações de acesso a crédito por meio do Banco do Povo ou outras organizações congêneres - Grupos para os quais as ações estão voltadas: Outros" },
    { "id": "A465", "shortName": "Governo municipal desenvolve ações de acesso a crédito por meio do Banco do Povo ou outras organizações congêneres - Grupos para os quais as ações estão voltadas: Outros - Especifique" },
    { "id": "A466", "shortName": "Governo municipal desenvolve ações de acesso a crédito por meio do Banco do Povo ou outras organizações congêneres - Parceiros responsáveis pela implementação" },
    { "id": "A467", "shortName": "Governo municipal desenvolve ações de acesso a crédito por meio do Banco do Povo ou outras organizações congêneres - Parceiros responsáveis pela implementação: Governo federal" },
    { "id": "A468", "shortName": "Governo municipal desenvolve ações de acesso a crédito por meio do Banco do Povo ou outras organizações congêneres - Parceiros responsáveis pela implementação: Governo estadual" },
    { "id": "A469", "shortName": "Governo municipal desenvolve ações de acesso a crédito por meio do Banco do Povo ou outras organizações congêneres - Parceiros responsáveis pela implementação: ONGs e entidades do terceiro setor (1)" },
    { "id": "A470", "shortName": "Governo municipal desenvolve ações de acesso a crédito por meio do Banco do Povo ou outras organizações congêneres - Parceiros responsáveis pela implementação: Sistema S (2)" },
    { "id": "A471", "shortName": "Governo municipal desenvolve ações de acesso a crédito por meio do Banco do Povo ou outras organizações congêneres - Parceiros responsáveis pela implementação: Universidades, Institutos de ensino técnico e profissional" },
    { "id": "A472", "shortName": "Governo municipal desenvolve ações de acesso a crédito por meio do Banco do Povo ou outras organizações congêneres - Parceiros responsáveis pela implementação: Entidades de classe de trabalhadores" },
    { "id": "A473", "shortName": "Governo municipal desenvolve ações de acesso a crédito por meio do Banco do Povo ou outras organizações congêneres - Parceiros responsáveis pela implementação: Entidades de classe patronais" },
    { "id": "A474", "shortName": "Governo municipal desenvolve ações de acesso a crédito por meio do Banco do Povo ou outras organizações congêneres - Parceiros responsáveis pela implementação: Outros" },
    { "id": "A475", "shortName": "Governo municipal desenvolve ações de acesso a crédito do Proger urbano" },
    { "id": "A476", "shortName": "Governo municipal desenvolve ações de acesso a crédito do Proger urbano - Grupos para os quais as ações estão voltadas" },
    { "id": "A477", "shortName": "Governo municipal desenvolve ações de acesso a crédito do Proger urbano - Grupos para os quais as ações estão voltadas: Desempregados" },
    { "id": "A478", "shortName": "Governo municipal desenvolve ações de acesso a crédito do Proger urbano - Grupos para os quais as ações estão voltadas: Inscritos no Cadastro Único para Programas Sociais" },
    { "id": "A479", "shortName": "Governo municipal desenvolve ações de acesso a crédito do Proger urbano - Grupos para os quais as ações estão voltadas: Beneficiários do Programa Bolsa Família" },
    { "id": "A480", "shortName": "Governo municipal desenvolve ações de acesso a crédito do Proger urbano - Grupos para os quais as ações estão voltadas: Egressos de cursos de qualificação profissional" },
    { "id": "A481", "shortName": "Governo municipal desenvolve ações de acesso a crédito do Proger urbano - Grupos para os quais as ações estão voltadas: Catadores de materiais recicláveis" },
    { "id": "A482", "shortName": "Governo municipal desenvolve ações de acesso a crédito do Proger urbano - Grupos para os quais as ações estão voltadas: População em situação de rua" },
    { "id": "A483", "shortName": "Governo municipal desenvolve ações de acesso a crédito do Proger urbano - Grupos para os quais as ações estão voltadas: Outros" },
    { "id": "A484", "shortName": "Governo municipal desenvolve ações de acesso a crédito do Proger urbano - Grupos para os quais as ações estão voltadas: Outros - Especifique" },
    { "id": "A485", "shortName": "Governo municipal desenvolve ações de acesso a crédito do Proger urbano - Parceiros responsáveis pela implementação" },
    { "id": "A486", "shortName": "Governo municipal desenvolve ações de acesso a crédito do Proger urbano - Parceiros responsáveis pela implementação: Governo federal" },
    { "id": "A487", "shortName": "Governo municipal desenvolve ações de acesso a crédito do Proger urbano - Parceiros responsáveis pela implementação: Governo estadual" },
    { "id": "A488", "shortName": "Governo municipal desenvolve ações de acesso a crédito do Proger urbano - Parceiros responsáveis pela implementação: ONGs e entidades do terceiro setor (1)" },
    { "id": "A489", "shortName": "Governo municipal desenvolve ações de acesso a crédito do Proger urbano - Parceiros responsáveis pela implementação: Sistema S (2)" },
    { "id": "A490", "shortName": "Governo municipal desenvolve ações de acesso a crédito do Proger urbano - Parceiros responsáveis pela implementação: Universidades, Institutos de ensino técnico e profissional" },
    { "id": "A491", "shortName": "Governo municipal desenvolve ações de acesso a crédito do Proger urbano - Parceiros responsáveis pela implementação: Entidades de classe de trabalhadores" },
    { "id": "A492", "shortName": "Governo municipal desenvolve ações de acesso a crédito do Proger urbano - Parceiros responsáveis pela implementação: Entidades de classe patronais" },
    { "id": "A493", "shortName": "Governo municipal desenvolve ações de acesso a crédito do Proger urbano - Parceiros responsáveis pela implementação: Outros" }
  ]
}
