{
  "name":"Gestão de riscos e resposta a desastres",
  "url":"ftp://ftp.ibge.gov.br/Perfil_Municipios/2017/Base_de_Dados/Base_MUNIC_2017_xls.zip",
  "md5":"35cdc4e2f12bc366ec459cd34d36f5b6",
  "fileInZip":"Base MUNIC 2017.xls",
  "md5FileInZip":"37deb604f3862008d18570ed0ede62ae",
  "startRow": 1,
  "format":"xls.zip",
  "workbook":"Gestão de risco",
  "years": [2017],
  "cityIdColumn": 0,
  "indicatorRow": 0,
  "firstCityId": "1100015",
  "lastCityId": "5300108",
  "indicatorStartColumn": 1,
  "indicators": [
    {"id":"MGRD01","shortName":"O município foi atingido pela seca nos últimos 4 anos"},
    {"id":"MGRD02","shortName":"Ano em que aconteceu a seca de maior impacto para o município" },
    {"id":"MGRD031","shortName":"No ano de seca de maior impacto para o município ocorreram: Perdas financeiras" },
    {"id":"MGRD032","shortName":"No ano de seca de maior impacto para o município ocorreram: Perdas humanas" },
    {"id":"MGRD033","shortName":"No ano de seca de maior impacto para o município ocorreram: Perdas de animais" },
    {"id":"MGRD034","shortName":"No ano de seca de maior impacto para o município ocorreram: Perdas ambientais" },
    {"id":"MGRD035","shortName":"No ano de seca de maior impacto para o município ocorreram: Perda ou redução da produção agrícola" },
    {"id":"MGRD036","shortName":"No ano de seca de maior impacto para o município ocorreram: Surgimento ou aumento de área de desertificação" },
    {"id":"MGRD037","shortName":"No ano de seca de maior impacto para o município ocorreram: Concentração de poluentes na água exigindo ampliação na captação e no tratamento da água" },
    {"id":"MGRD038","shortName":"No ano de seca de maior impacto para o município ocorreram: Outras" },
    {"id":"MGRD039","shortName":"No ano de seca de maior impacto para o município ocorreram: Não sabe informar" },
    {"id":"MGRD041","shortName":"O que está sendo feito no município para evitar ou minimizar os danos causados pela seca: Construção de cisternas" },
    {"id":"MGRD042","shortName":"O que está sendo feito no município para evitar ou minimizar os danos causados pela seca: Construção de açudes" },
    {"id":"MGRD043","shortName":"O que está sendo feito no município para evitar ou minimizar os danos causados pela seca: Construção de barragens" },
    {"id":"MGRD044","shortName":"O que está sendo feito no município para evitar ou minimizar os danos causados pela seca: Construção de poços" },
    {"id":"MGRD045","shortName":"O que está sendo feito no município para evitar ou minimizar os danos causados pela seca: Revegetação" },
    {"id":"MGRD046","shortName":"O que está sendo feito no município para evitar ou minimizar os danos causados pela seca: Incentivo público à agricultura adaptada ao clima e solo da região, com sistemas de irrigação" },
    {"id":"MGRD047","shortName":"O que está sendo feito no município para evitar ou minimizar os danos causados pela seca: Distribuição regular de água através de carros-pipa em épocas de estiagem (situações de emergência)" },
    {"id":"MGRD048","shortName":"O que está sendo feito no município para evitar ou minimizar os danos causados pela seca: Ações de uso sustentável dos recursos naturais (fontes de energia eólica ou solar, planos de bacia, programas de conscientização e sensibilização, etc.)" },
    {"id":"MGRD049","shortName":"O que está sendo feito no município para evitar ou minimizar os danos causados pela seca: Outras" },
    {"id":"MGRD0410","shortName":"O que está sendo feito no município para evitar ou minimizar os danos causados pela seca: Não sabe informar" },
    {"id":"MGRD05","shortName":"O município possui Plano de Contingência e/ou Preservação para a seca"},
    {"id":"MGRD06","shortName":"O município foi atingido por alagamentos nos últimos 4 anos"},
    {"id":"MGRD07","shortName":"O município foi atingido por processo erosivo acelerado nos últimos 4 anos"},
    {"id":"MGRD08","shortName":"O município foi atingido por enchentes ou inundações graduais nos últimos 4 anos"},
    {"id":"MGRD09","shortName":"Em que ano aconteceu a enchente ou inundação gradual de maior impacto para o município"},
    {"id":"MGRD101","shortName":"No ano de enchente ou inundação gradual de maior impacto para o município Edificações foram atingidas"},
    {"id":"MGRD1011","shortName":"No ano de enchente ou inundação gradual de maior impacto para o município Edificações foram atingidas - Área atingida"},
    {"id":"MGRD102","shortName":"No ano de enchente ou inundação gradual de maior impacto para o município Pessoas foram desalojadas ou ficaram desabrigadas"},
    {"id":"MGRD1021","shortName":"No ano de enchente ou inundação gradual de maior impacto para o município Pessoas foram desalojadas ou ficaram desabrigadas - Área de desalojamento ou desabrigo"},
    {"id":"MGRD103","shortName":"No ano de enchente ou inundação gradual de maior impacto para o município Ocorreram óbitos"},
    {"id":"MGRD1031","shortName":"No ano de enchente ou inundação gradual de maior impacto para o município Ocorreram óbitos - Área dos óbitos"},
    {"id":"MGRD1041","shortName":"Áreas do município em que ocorreram as enchentes ou inundações graduais: Naturalmente inundáveis" },
    {"id":"MGRD1042","shortName":"Áreas do município em que ocorreram as enchentes ou inundações graduais: Não usualmente inundáveis" },
    {"id":"MGRD1043","shortName":"Áreas do município em que ocorreram as enchentes ou inundações graduais: Com ocupações regulares" },
    {"id":"MGRD1044","shortName":"Áreas do município em que ocorreram as enchentes ou inundações graduais: Com ocupações irregulares" },
    {"id":"MGRD1045","shortName":"Áreas do município em que ocorreram as enchentes ou inundações graduais: Com existência de processo erosivo acelerado" },
    {"id":"MGRD1046","shortName":"Áreas do município em que ocorreram as enchentes ou inundações graduais: Outras áreas" },
    {"id":"MGRD1047","shortName":"Áreas do município em que ocorreram as enchentes ou inundações graduais: Não sabe" },
    {"id":"MGRD1051","shortName":"Ações para evitar ou minimizar os danos causados por enchentes ou inundações graduais: Barragem à montante para equalização das cheias" },
    {"id":"MGRD1052","shortName":"Ações para evitar ou minimizar os danos causados por enchentes ou inundações graduais: Construção de canais de macrodrenagens" },
    {"id":"MGRD1053","shortName":"Ações para evitar ou minimizar os danos causados por enchentes ou inundações graduais: Construção de parque" },
    {"id":"MGRD1054","shortName":"Ações para evitar ou minimizar os danos causados por enchentes ou inundações graduais: Construção de reservatórios de amortecimento de cheias" },
    {"id":"MGRD1055","shortName":"Ações para evitar ou minimizar os danos causados por enchentes ou inundações graduais: Desassoreamento de corpos hídricos" },
    {"id":"MGRD1056","shortName":"Ações para evitar ou minimizar os danos causados por enchentes ou inundações graduais: Retificação de rios, aumento de calha ou desvio de cursos d’água" },
    {"id":"MGRD1057","shortName":"Ações para evitar ou minimizar os danos causados por enchentes ou inundações graduais: Realocação da população que vive em área de risco" },
    {"id":"MGRD1058","shortName":"Ações para evitar ou minimizar os danos causados por enchentes ou inundações graduais: Revegetação" },
    {"id":"MGRD1059","shortName":"Ações para evitar ou minimizar os danos causados por enchentes ou inundações graduais: Revitalização de rios ou bacias" },
    {"id":"MGRD10510","shortName":"Ações para evitar ou minimizar os danos causados por enchentes ou inundações graduais: Outra solução" },
    {"id":"MGRD10511","shortName":"Ações para evitar ou minimizar os danos causados por enchentes ou inundações graduais: Nenhuma intervenção" },
    {"id":"MGRD10512","shortName":"Ações para evitar ou minimizar os danos causados por enchentes ou inundações graduais: Não sabe" },
    {"id":"MGRD11","shortName":"O município foi atingido por enxurradas ou inundações bruscas nos últimos 4 anos"},
    {"id":"MGRD12","shortName":"Em que ano aconteceu a enxurrada ou inundação brusca de maior impacto para o município"},
    {"id":"MGRD131","shortName":"No ano de enxurrada ou inundação brusca de maior impacto para o município Edificações foram atingidas"},
    {"id":"MGRD1311","shortName":"No ano de enxurrada ou inundação brusca de maior impacto para o município Edificações foram atingidas - Área atingida"},
    {"id":"MGRD132","shortName":"No ano de enxurrada ou inundação brusca de maior impacto para o município Pessoas foram desalojadas ou ficaram desabrigadas"},
    {"id":"MGRD1321","shortName":"No ano de enxurrada ou inundação brusca de maior impacto para o município Pessoas foram desalojadas ou ficaram desabrigadas - Área de desalojamento ou desabrigo"},
    {"id":"MGRD133","shortName":"No ano de enxurrada ou inundação brusca de maior impacto para o município Ocorreram óbitos"},
    {"id":"MGRD1331","shortName":"No ano de enxurrada ou inundação brusca de maior impacto para o município Ocorreram óbitos - Área dos óbitos"},
    {"id":"MGRD1341","shortName":"Áreas do município em que ocorreram as enxurradas ou inundações bruscas: Naturalmente inundáveis" },
    {"id":"MGRD1342","shortName":"Áreas do município em que ocorreram as enxurradas ou inundações bruscas: Não usualmente inundáveis" },
    {"id":"MGRD1343","shortName":"Áreas do município em que ocorreram as enxurradas ou inundações bruscas: Com ocupações regulares" },
    {"id":"MGRD1344","shortName":"Áreas do município em que ocorreram as enxurradas ou inundações bruscas: Com ocupações irregulares" },
    {"id":"MGRD1345","shortName":"Áreas do município em que ocorreram as enxurradas ou inundações bruscas: Com existência de processo erosivo acelerado" },
    {"id":"MGRD1346","shortName":"Áreas do município em que ocorreram as enxurradas ou inundações bruscas: Outras áreas" },
    {"id":"MGRD1347","shortName":"Áreas do município em que ocorreram as enxurradas ou inundações bruscas: Não sabe" },
    {"id":"MGRD1351","shortName":"Ações para evitar ou minimizar os danos causados por enxurradas ou inundações bruscas: Barragem à montante para equalização das cheias" },
    {"id":"MGRD1352","shortName":"Ações para evitar ou minimizar os danos causados por enxurradas ou inundações bruscas: Construção de canais de macrodrenagens" },
    {"id":"MGRD1353","shortName":"Ações para evitar ou minimizar os danos causados por enxurradas ou inundações bruscas: Construção de parque" },
    {"id":"MGRD1354","shortName":"Ações para evitar ou minimizar os danos causados por enxurradas ou inundações bruscas: Construção de reservatórios de amortecimento de cheias" },
    {"id":"MGRD1355","shortName":"Ações para evitar ou minimizar os danos causados por enxurradas ou inundações bruscas: Desassoreamento de corpos hídricos" },
    {"id":"MGRD1356","shortName":"Ações para evitar ou minimizar os danos causados por enxurradas ou inundações bruscas: Retificação de rios, aumento de calha ou desvio de cursos d’água" },
    {"id":"MGRD1357","shortName":"Ações para evitar ou minimizar os danos causados por enxurradas ou inundações bruscas: Realocação da população que vive em área de risco" },
    {"id":"MGRD1358","shortName":"Ações para evitar ou minimizar os danos causados por enxurradas ou inundações bruscas: Revegetação" },
    {"id":"MGRD1359","shortName":"Ações para evitar ou minimizar os danos causados por enxurradas ou inundações bruscas: Revitalização de rios ou bacias" },
    {"id":"MGRD13510","shortName":"Ações para evitar ou minimizar os danos causados por enxurradas ou inundações bruscas: Outra solução" },
    {"id":"MGRD13511","shortName":"Ações para evitar ou minimizar os danos causados por enxurradas ou inundações bruscas: Nenhuma intervenção" },
    {"id":"MGRD13512","shortName":"Ações para evitar ou minimizar os danos causados por enxurradas ou inundações bruscas: Não sabe" },
    {"id":"MGRD14","shortName":"O município foi atingido por escorregamentos ou deslizamentos de encostas nos últimos 4 anos"},
    {"id":"MGRD15","shortName":"Ano em que aconteceu o escorregamento ou deslizamento de encosta de maior impacto para o município"},
    {"id":"MGRD161","shortName":"No ano de escorregamento ou deslizamento de encosta de maior impacto para o município Edificações foram atingidas"},
    {"id":"MGRD1611","shortName":"No ano de escorregamento ou deslizamento de encosta de maior impacto para o município Edificações foram atingidas - Área atingida"},
    {"id":"MGRD162","shortName":"No ano de escorregamento ou deslizamento de encosta de maior impacto para o município Pessoas foram desalojadas ou ficaram desabrigadas"},
    {"id":"MGRD1621","shortName":"No ano de escorregamento ou deslizamento de encosta de maior impacto para o município Pessoas foram desalojadas ou ficaram desabrigadas - Área de desalojamento ou desabrigo"},
    {"id":"MGRD163","shortName":"No ano de escorregamento ou deslizamento de encosta de maior impacto para o município Ocorreram óbitos"},
    {"id":"MGRD1631","shortName":"No ano de escorregamento ou deslizamento de encosta de maior impacto para o município Ocorreram óbitos - Área dos óbitos"},
    {"id":"MGRD1641","shortName":"Áreas do município em que ocorreram os escorregamentos ou deslizamentos de encostas: De taludes e encostas sujeitas a deslizamentos" },
    {"id":"MGRD1642","shortName":"Áreas do município em que ocorreram os escorregamentos ou deslizamentos de encostas: Urbanas com processos erosivos crônicos" },
    {"id":"MGRD1643","shortName":"Áreas do município em que ocorreram os escorregamentos ou deslizamentos de encostas: Sem infraestrutura de drenagem" },
    {"id":"MGRD1644","shortName":"Áreas do município em que ocorreram os escorregamentos ou deslizamentos de encostas: Com ocupações regulares" },
    {"id":"MGRD1645","shortName":"Áreas do município em que ocorreram os escorregamentos ou deslizamentos de encostas: Com ocupações irregulares" },
    {"id":"MGRD1646","shortName":"Áreas do município em que ocorreram os escorregamentos ou deslizamentos de encostas: Sem ocupação" },
    {"id":"MGRD1647","shortName":"Áreas do município em que ocorreram os escorregamentos ou deslizamentos de encostas: Outras áreas" },
    {"id":"MGRD1648","shortName":"Áreas do município em que ocorreram os escorregamentos ou deslizamentos de encostas: Não sabe" },
    {"id":"MGRD1651","shortName":"Ações para evitar ou minimizar os danos causados por escorregamentos ou deslizamentos de encostas: Estabilização e proteção de taludes" },
    {"id":"MGRD1652","shortName":"Ações para evitar ou minimizar os danos causados por escorregamentos ou deslizamentos de encostas: Retaludamento de encostas" },
    {"id":"MGRD1653","shortName":"Ações para evitar ou minimizar os danos causados por escorregamentos ou deslizamentos de encostas: Obras de contenção" },
    {"id":"MGRD1654","shortName":"Ações para evitar ou minimizar os danos causados por escorregamentos ou deslizamentos de encostas: Construção de canais de macrodrenagens" },
    {"id":"MGRD1655","shortName":"Ações para evitar ou minimizar os danos causados por escorregamentos ou deslizamentos de encostas: Realocação da população que vive em área de risco" },
    {"id":"MGRD1656","shortName":"Ações para evitar ou minimizar os danos causados por escorregamentos ou deslizamentos de encostas: Revegetação de encostas" },
    {"id":"MGRD1657","shortName":"Ações para evitar ou minimizar os danos causados por escorregamentos ou deslizamentos de encostas: Outra solução" },
    {"id":"MGRD1658","shortName":"Ações para evitar ou minimizar os danos causados por escorregamentos ou deslizamentos de encostas: Nenhuma intervenção" },
    {"id":"MGRD1659","shortName":"Ações para evitar ou minimizar os danos causados por escorregamentos ou deslizamentos de encostas: Não sabe" },
    {"id":"MGRD171","shortName":"O município possui como instrumento de planejamento: Plano Diretor que contemple a prevenção de enchentes ou inundações graduais, ou enxurradas ou inundações bruscas"},
    {"id":"MGRD172","shortName":"O município possui como instrumento de planejamento: Lei de Uso e Ocupação do Solo que contemple a prevenção de enchentes ou inundações graduais, ou enxurradas ou inundações bruscas"},
    {"id":"MGRD173","shortName":"O município possui como instrumento de planejamento: Lei específica que contemple a prevenção de enchentes ou inundações graduais, ou enxurradas ou inundações bruscas"},
    {"id":"MGRD174","shortName":"O município possui como instrumento de planejamento: Plano Diretor que contemple a prevenção de escorregamentos ou deslizamentos de encostas"},
    {"id":"MGRD175","shortName":"O município possui como instrumento de planejamento: Lei de Uso e Ocupação do Solo que contemple a prevenção de escorregamentos ou deslizamentos de encostas"},
    {"id":"MGRD176","shortName":"O município possui como instrumento de planejamento: Lei específica que contemple a prevenção de escorregamentos ou deslizamentos de encostas"},
    {"id":"MGRD177","shortName":"O município possui como instrumento de planejamento: Plano Municipal de Redução de Riscos"},
    {"id":"MGRD178","shortName":"O município possui como instrumento de planejamento: Carta geotécnica de aptidão à urbanização"},
    {"id":"MGRD179","shortName":"O município possui como instrumento de planejamento: Nenhum dos instrumentos"},
    {"id":"MGRD181","shortName":"Em relação ao gerenciamento de riscos de desastres decorrentes de enchentes ou inundações graduais, ou enxurradas ou inundações bruscas, o município possui: Mapeamentos de áreas de risco de enchentes ou inundações"},
    {"id":"MGRD182","shortName":"Em relação ao gerenciamento de riscos de desastres decorrentes de enchentes ou inundações graduais, ou enxurradas ou inundações bruscas, o município possui: Programa habitacional para realocação de população de baixa renda em área de risco (reassentamento em empreendimento de habitação de interesse social, pagamento de aluguel social ou similar, indenização de benfeitoria, compra de uma nova moradia, auxílio financeiro específico, entre outros)"},
    {"id":"MGRD183","shortName":"Em relação ao gerenciamento de riscos de desastres decorrentes de enchentes ou inundações graduais, ou enxurradas ou inundações bruscas, o município possui: Mecanismos de controle e fiscalização para evitar ocupação em áreas suscetíveis aos desastres"},
    {"id":"MGRD184","shortName":"Em relação ao gerenciamento de riscos de desastres decorrentes de enchentes ou inundações graduais, ou enxurradas ou inundações bruscas, o município possui: Plano de Contingência"},
    {"id":"MGRD185","shortName":"Em relação ao gerenciamento de riscos de desastres decorrentes de enchentes ou inundações graduais, ou enxurradas ou inundações bruscas, o município possui: Projetos de engenharia relacionados ao evento"},
    {"id":"MGRD186","shortName":"Em relação ao gerenciamento de riscos de desastres decorrentes de enchentes ou inundações graduais, ou enxurradas ou inundações bruscas, o município possui: Sistema de alerta antecipado de desastres"},
    {"id":"MGRD187","shortName":"Em relação ao gerenciamento de riscos de desastres decorrentes de enchentes ou inundações graduais, ou enxurradas ou inundações bruscas, o município possui: Cadastro de risco"},
    {"id":"MGRD188","shortName":"Em relação ao gerenciamento de riscos de desastres decorrentes de enchentes ou inundações graduais, ou enxurradas ou inundações bruscas, o município possui: Nenhum dos itens"},
    {"id":"MGRD191","shortName":"Em relação ao gerenciamento de riscos de desastres decorrentes de escorregamentos ou deslizamento de encostas, o município possui: Mapeamentos de áreas de risco de enchentes ou inundações"},
    {"id":"MGRD192","shortName":"Em relação ao gerenciamento de riscos de desastres decorrentes de escorregamentos ou deslizamento de encostas, o município possui: Programa habitacional para realocação de população de baixa renda em área de risco (reassentamento em empreendimento de habitação de interesse social, pagamento de aluguel social ou similar, indenização de benfeitoria, compra de uma nova moradia, auxílio financeiro específico, entre outros)"},
    {"id":"MGRD193","shortName":"Em relação ao gerenciamento de riscos de desastres decorrentes de escorregamentos ou deslizamento de encostas, o município possui: Mecanismos de controle e fiscalização para evitar ocupação em áreas suscetíveis aos desastres"},
    {"id":"MGRD194","shortName":"Em relação ao gerenciamento de riscos de desastres decorrentes de escorregamentos ou deslizamento de encostas, o município possui: Plano de Contingência"},
    {"id":"MGRD195","shortName":"Em relação ao gerenciamento de riscos de desastres decorrentes de escorregamentos ou deslizamento de encostas, o município possui: Projetos de engenharia relacionados ao evento"},
    {"id":"MGRD196","shortName":"Em relação ao gerenciamento de riscos de desastres decorrentes de escorregamentos ou deslizamento de encostas, o município possui: Sistema de alerta antecipado de desastres"},
    {"id":"MGRD197","shortName":"Em relação ao gerenciamento de riscos de desastres decorrentes de escorregamentos ou deslizamento de encostas, o município possui: Cadastro de risco"},
    {"id":"MGRD198","shortName":"Em relação ao gerenciamento de riscos de desastres decorrentes de escorregamentos ou deslizamento de encostas, o município possui: Nenhum dos itens"},
    {"id":"MGRD201","shortName":"Em relação à gestão de riscos e resposta a desastres, existe no município: Unidade do Corpo de Bombeiros"},
    {"id":"MGRD202","shortName":"Em relação à gestão de riscos e resposta a desastres, existe no município: Coordenação Municipal de Defesa Civil (COMDECs)"},
    {"id":"MGRD203","shortName":"Em relação à gestão de riscos e resposta a desastres, existe no município: Núcleo de Defesa Civil (NUDECs)"},
    {"id":"MGRD204","shortName":"Em relação à gestão de riscos e resposta a desastres, existe no município: Nenhuma das citadas"},
    {"id":"MGRD205","shortName":"Em relação à gestão de riscos e resposta a desastres, existe no município: Não sabe"}
  ]
}
