{
  "name":"Órgão gestor da cultura",
  "url":"ftp://ftp.ibge.gov.br/Perfil_Municipios/Cultura_2014/base_cultura_MUNIC_xls_2014.zip",
  "md5":"3dd6ede1846b5306491ae1bb8ca114bd",
  "fileInZip":"base_cultura_MUNIC_xls_2014.xls",
  "md5FileInZip":"b3c82fbec4387f889d7e2fc27c0b56d4",
  "startRow": 1,
  "format":"xls.zip",
  "workbook":"Órgão gestor",
  "years": [2014],
  "cityIdColumn": 0,
  "indicatorStartColumn": 1,
  "indicatorRow": 0,
  "firstCityId":"1100015",
  "lastCityId":"5300108",
  "indicators": [
    { "id": "A2", "shortName": "Caracterização do órgão" },
    {"id": "A3", "shortName": "CNPJ do órgão gestor" }
  ]
}
