{
  "name":"Recursos humanos do órgão gestor da cultura",
  "url":"ftp://ftp.ibge.gov.br/Perfil_Municipios/Cultura_2014/base_cultura_MUNIC_xls_2014.zip",
  "md5":"3dd6ede1846b5306491ae1bb8ca114bd",
  "fileInZip":"base_cultura_MUNIC_xls_2014.xls",
  "md5FileInZip":"b3c82fbec4387f889d7e2fc27c0b56d4",
  "startRow": 1,
  "format":"xls.zip",
  "workbook":"Recursos humanos",
  "years": [2014],
  "cityIdColumn": 0,
  "indicatorStartColumn": 1,
  "indicatorRow": 0,
  "firstCityId":"1100015",
  "lastCityId":"5300108",
  "indicators": [
    {"id":"A20","shortName":"Escolaridade do titular do órgão gestor"},
    {"id":"A21","shortName":"Titular do órgão gestor - Formação de maior nível, graduação ou pós-graduação"},
    {"id":"A22","shortName":"Titular do órgão gestor - Sexo"},
    {"id":"A23","shortName":"Titular do órgão gestor - Idade"},
    {"id":"A24","shortName":"Total do pessoal ocupado"},
    {"id":"A25","shortName":"Total do pessoal ocupado Sem instrução (3)"},
    {"id":"A26","shortName":"Total do pessoal ocupado Ensino fundamental"},
    {"id":"A27","shortName":"Total do pessoal ocupado Ensino médio"},
    {"id":"A28","shortName":"Total do pessoal ocupado Ensino superior"},
    {"id":"A29","shortName":"Total do pessoal ocupado Pós-graduação"},
    {"id":"A30","shortName":"Total do pessoal ocupado - Total de estatutários (2)"},
    {"id":"A31","shortName":"Total do pessoal ocupado - Estatutários - Sem instrução (3)"},
    {"id":"A32","shortName":"Total do pessoal ocupado - Estatutários - Ensino fundamental"},
    {"id":"A33","shortName":"Total do pessoal ocupado - Estatutários - Ensino médio"},
    {"id":"A34","shortName":"Total do pessoal ocupado - Estatutários - Ensino superior"},
    {"id":"A35","shortName":"Total do pessoal ocupado - Estatutários - Pós-graduação"},
    {"id":"A36","shortName":"Total do pessoal ocupado - Total de celetistas (2)"},
    {"id":"A37","shortName":"Total do pessoal ocupado - Celetistas - Sem instrução (3)"},
    {"id":"A38","shortName":"Total do pessoal ocupado - Celetistas - Ensino fundamental"},
    {"id":"A39","shortName":"Total do pessoal ocupado - Celetistas - Ensino médio"},
    {"id":"A40","shortName":"Total do pessoal ocupado - Celetistas - Ensino superior"},
    {"id":"A41","shortName":"Total do pessoal ocupado - Celetistas - Pós-graduação"},
    {"id":"A42","shortName":"Total do pessoal ocupado - Total de somente comissionados (2)"},
    {"id":"A43","shortName":"Total do pessoal ocupado - Somente comissionados - Sem instrução (3)"},
    {"id":"A44","shortName":"Total do pessoal ocupado - Somente comissionados - Ensino fundamental"},
    {"id":"A45","shortName":"Total do pessoal ocupado - Somente comissionados - Ensino médio"},
    {"id":"A46","shortName":"Total do pessoal ocupado - Somente comissionados - Ensino superior"},
    {"id":"A47","shortName":"Total do pessoal ocupado - Somente comissionados - Pós-graduação"},
    {"id":"A48","shortName":"Total do pessoal ocupado - Total de estagiários (2)"},
    {"id":"A49","shortName":"Total do pessoal ocupado - Estagiários - Ensino fundamental"},
    {"id":"A50","shortName":"Total do pessoal ocupado - Estagiários - Ensino médio"},
    {"id":"A51","shortName":"Total do pessoal ocupado - Total de cedidos (2)"},
    {"id":"A52","shortName":"Total do pessoal ocupado - Cedidos - Sem instrução (3)"},
    {"id":"A53","shortName":"Total do pessoal ocupado - Cedidos - Ensino fundamental"},
    {"id":"A54","shortName":"Total do pessoal ocupado - Cedidos - Ensino médio"},
    {"id":"A55","shortName":"Total do pessoal ocupado - Cedidos - Ensino superior"},
    {"id":"A56","shortName":"Total do pessoal ocupado - Cedidos - Pós-graduação"},
    {"id":"A57","shortName":"Total do pessoal ocupado - Total de sem vínculo permanente (2)"},
    {"id":"A58","shortName":"Total do pessoal ocupado - Sem vínculo permanente - Sem instrução (3)"},
    {"id":"A59","shortName":"Total do pessoal ocupado - Sem vínculo permanente - Ensino fundamental"},
    {"id":"A60","shortName":"Total do pessoal ocupado - Sem vínculo permanente - Ensino médio"},
    {"id":"A61","shortName":"Total do pessoal ocupado - Sem vínculo permanente - Ensino superior"},
    {"id":"A62","shortName":"Total do pessoal ocupado - Sem vínculo permanente - Pós-graduação"},
    {"id":"A63","shortName":"A gestão municipal oferece cursos de capacitação para servidores e gestores públicos da cultura"},
    {"id":"A64","shortName":"A gestão municipal oferece cursos de capacitação para servidores e gestores públicos da cultura: Gestão de equipamentos culturais"},
    {"id":"A65","shortName":"A gestão municipal oferece cursos de capacitação para servidores e gestores públicos da cultura: Elaboração e gestão de projetos"},
    {"id":"A66","shortName":"A gestão municipal oferece cursos de capacitação para servidores e gestores públicos da cultura: Capacitação tecnológica e administrativa"},
    {"id":"A67","shortName":"A gestão municipal oferece cursos de capacitação para servidores e gestores públicos da cultura: Gestão cultural"},
    {"id":"A68","shortName":"A gestão municipal oferece cursos de capacitação para servidores e gestores públicos da cultura: Leis de incentivo"},
    {"id":"A69","shortName":"A gestão municipal oferece cursos de capacitação para servidores e gestores públicos da cultura: Editais"},
    {"id":"A70","shortName":"A gestão municipal oferece cursos de capacitação para servidores e gestores públicos da cultura: Captação de recursos"},
    {"id":"A71","shortName":"A gestão municipal oferece cursos de capacitação para servidores e gestores públicos da cultura: Estabelecimento de parcerias com entes públicos e privados"},
    {"id":"A72","shortName":"A gestão municipal oferece cursos de capacitação para servidores e gestores públicos da cultura: Nenhum dos temas"},
    {"id":"A73","shortName":"A gestão municipal oferece cursos de capacitação para servidores e gestores públicos da cultura: Nos últimos 12 meses a gestão municipal realizou curso em algum dos temas citados"},
    {"id":"A74","shortName":"A gestão municipal oferece cursos de capacitação para servidores e gestores públicos da cultura: Dentre os cursos de capacitação ofertados algum é realizado por meio de parceria"}
  ]
}
