{
  "name":"Transporte",
  "url":"ftp://ftp.ibge.gov.br/Perfil_Municipios/2008/Base2008.zip",
  "md5":"89ac158e5cbc61c5dc0803037c99ebd2",
  "fileInZip":"Base 2008 corrigida em 26 12..xls",
  "md5FileInZip":"cabfc8927565dafbb6e04b014aee1e21",
  "startRow": 1,
  "format":"xls.zip",
  "workbook":"Transporte",
  "years": [2008],
  "cityIdColumn": 0,
  "indicatorStartColumn": 1,
  "indicatorRow": 0,
  "firstCityId":"1100015",
  "lastCityId":"5300108",
  "indicators": [
    {"id":"A203","shortName":"Caracterização do órgão gestor do transporte no município"},
    {"id":"A204","shortName":"Conselho municipal de transporte - existência"},
    {"id":"A205","shortName":"Conselho municipal de transporte - Caráter do conselho: Consultivo"},
    {"id":"A206","shortName":"Conselho municipal de transporte - Caráter do conselho: Deliberativo"},
    {"id":"A207","shortName":"Conselho municipal de transporte - Caráter do conselho: Normativo"},
    {"id":"A208","shortName":"Conselho municipal de transporte - Caráter do conselho: Fiscalizador"},
    {"id":"A209","shortName":"Conselho municipal de transporte - Conselho municipal de transporte é"},
    {"id":"A210","shortName":"Conselho municipal de transporte - A atuação do conselho municipal de transporte é voltada para: Gestão da política de transporte"},
    {"id":"A211","shortName":"Conselho municipal de transporte - A atuação do conselho municipal de transporte é voltada para: Gestão do trânsito"},
    {"id":"A212","shortName":"Conselho municipal de transporte - A atuação do conselho municipal de transporte é voltada para: Gestão das vias públicas"},
    {"id":"A213","shortName":"Conselho municipal de transporte - O conselho realizou reunião nos últimos 12 meses"},
    {"id":"A214","shortName":"Fundo municipal de transporte - existência"},
    {"id":"A215","shortName":"O fundo municipal de transporte tem financiado ações e projetos para questões dos transportes nos últimos 12 meses"},
    {"id":"A216","shortName":"Plano municipal de transporte - existência"},
    {"id":"A217","shortName":"Houve participação da sociedade civil na elaboração do plano municipal de transporte"},
    {"id":"A218","shortName":"São aspectos do plano municipal de transporte: Priorizar o transporte coletivo e as áreas destinadas aos pedestres"},
    {"id":"A219","shortName":"São aspectos do plano municipal de transporte: Apontar diretrizes que fortaleçam a gestão do transporte coletivo"},
    {"id":"A220","shortName":"São aspectos do plano municipal de transporte: Auxiliar ou contribuir para o estabelecimento da política tarifária"},
    {"id":"A221","shortName":"São aspectos do plano municipal de transporte: Estabelecer políticas integradas intermunicipais"},
    {"id":"A222","shortName":"São aspectos do plano municipal de transporte: Outros"},
    {"id":"A223","shortName":"Serviços de transporte no município por barco – Existência"},
    {"id":"A224","shortName":"Serviços de transporte no município por barco – Organismo ou ente que o gerencia: Município"},
    {"id":"A225","shortName":"Serviços de transporte no município por barco – Organismo ou ente que o gerencia: Outro município"},
    {"id":"A226","shortName":"Serviços de transporte no município por barco – Organismo ou ente que o gerencia: Estado"},
    {"id":"A227","shortName":"Serviços de transporte no município por barco – Organismo ou ente que o gerencia: Federal"},
    {"id":"A228","shortName":"Serviços de transporte no município por barco – Organismo ou ente que o gerencia: Informal (7)"},
    {"id":"A229","shortName":"Serviços de transporte no município por metrô - Existência"},
    {"id":"A230","shortName":"Serviços de transporte no município por metrô - Organismo ou ente que o gerencia: Município"},
    {"id":"A231","shortName":"Serviços de transporte no município por metrô - Organismo ou ente que o gerencia: Outro município"},
    {"id":"A232","shortName":"Serviços de transporte no município por metrô - Organismo ou ente que o gerencia: Estado"},
    {"id":"A233","shortName":"Serviços de transporte no município por metrô - Organismo ou ente que o gerencia: Federal"},
    {"id":"A234","shortName":"Serviços de transporte no município por mototaxi - Existência"},
    {"id":"A235","shortName":"Serviços de transporte no município por mototaxi - Organismo ou ente que o gerencia: Município"},
    {"id":"A236","shortName":"Serviços de transporte no município por mototaxi - Organismo ou ente que o gerencia: Outro município"},
    {"id":"A237","shortName":"Serviços de transporte no município por mototaxi - Organismo ou ente que o gerencia: Estado"},
    {"id":"A238","shortName":"Serviços de transporte no município por mototaxi - Organismo ou ente que o gerencia: Federal"},
    {"id":"A239","shortName":"Serviços de transporte no município por mototaxi - Organismo ou ente que o gerencia: Informal (7)"},
    {"id":"A240","shortName":"Serviços de transporte no município por táxi - Existência"},
    {"id":"A241","shortName":"Serviços de transporte no município por táxi - Organismo ou ente que o gerencia: Município"},
    {"id":"A242","shortName":"Serviços de transporte no município por táxi - Organismo ou ente que o gerencia: Outro município"},
    {"id":"A243","shortName":"Serviços de transporte no município por táxi - Organismo ou ente que o gerencia: Estado"},
    {"id":"A244","shortName":"Serviços de transporte no município por táxi - Organismo ou ente que o gerencia: Federal"},
    {"id":"A245","shortName":"Serviços de transporte no município por táxi - Organismo ou ente que o gerencia: Informal (7)"},
    {"id":"A246","shortName":"Serviços de transporte no município por trem - Existência"},
    {"id":"A247","shortName":"Serviços de transporte no município por trem - Organismo ou ente que o gerencia: Município"},
    {"id":"A248","shortName":"Serviços de transporte no município por trem - Organismo ou ente que o gerencia: Outro município"},
    {"id":"A249","shortName":"Serviços de transporte no município por trem - Organismo ou ente que o gerencia: Estado"},
    {"id":"A250","shortName":"Serviços de transporte no município por trem - Organismo ou ente que o gerencia: Federal"},
    {"id":"A251","shortName":"Serviços de transporte no município por van - Existência"},
    {"id":"A252","shortName":"Serviços de transporte no município por van - Organismo ou ente que o gerencia: Município"},
    {"id":"A253","shortName":"Serviços de transporte no município por van - Organismo ou ente que o gerencia: Outro município"},
    {"id":"A254","shortName":"Serviços de transporte no município por van - Organismo ou ente que o gerencia: Estado"},
    {"id":"A255","shortName":"Serviços de transporte no município por van - Organismo ou ente que o gerencia: Federal"},
    {"id":"A256","shortName":"Serviços de transporte no município por van - Organismo ou ente que o gerencia: Informal (7)"},
    {"id":"A257","shortName":"Transporte coletivo por ônibus exclusivamente municipal - existência"},
    {"id":"A258","shortName":"Transporte coletivo exclusivamente municipal - Organismo ou ente que o gerencia: Município"},
    {"id":"A259","shortName":"Transporte coletivo exclusivamente municipal - Organismo ou ente que o gerencia: Outro município"},
    {"id":"A260","shortName":"Transporte coletivo exclusivamente municipal - Organismo ou ente que o gerencia: Estado"},
    {"id":"A261","shortName":"Transporte coletivo exclusivamente municipal - Organismo ou ente que o gerencia: Federal"},
    {"id":"A262","shortName":"Transporte coletivo exclusivamente municipal - Organismo ou ente que o gerencia: Informal (7)"},
    {"id":"A263","shortName":"Transporte coletivo exclusivamente municipal - Tipo de regulamentação: Consessão"},
    {"id":"A264","shortName":"Transporte coletivo exclusivamente municipal - Tipo de regulamentação: Autorização"},
    {"id":"A265","shortName":"Transporte coletivo exclusivamente municipal - Tipo de regulamentação: Permissão"},
    {"id":"A266","shortName":"Transporte coletivo exclusivamente municipal - Tipo de regulamentação: Não é regulamentado (9)"},
    {"id":"A267","shortName":"Transporte coletivo exclusivamente municipal - Passageiros com isenção: Maiores de 60 anos"},
    {"id":"A268","shortName":"Transporte coletivo exclusivamente municipal - Passageiros com isenção: Estudantes da rede pública"},
    {"id":"A269","shortName":"Transporte coletivo exclusivamente municipal - Passageiros com isenção: Estudantes da rede privada"},
    {"id":"A270","shortName":"Transporte coletivo exclusivamente municipal - Passageiros com isenção: Carteiros"},
    {"id":"A271","shortName":"Transporte coletivo exclusivamente municipal - Passageiros com isenção: Pessoas com deficiência"},
    {"id":"A272","shortName":"Transporte coletivo exclusivamente municipal - Passageiros com isenção: Policiais"},
    {"id":"A273","shortName":"Transporte coletivo exclusivamente municipal - Passageiros com isenção: Professores"},
    {"id":"A274","shortName":"Transporte coletivo exclusivamente municipal - Passageiros com isenção: Crianças menores de 7 anos"},
    {"id":"A275","shortName":"Transporte coletivo exclusivamente municipal - Passageiros com isenção: Outros"},
    {"id":"A276","shortName":"Transporte coletivo exclusivamente municipal - Passageiros com isenção: Nenhum passageiro"},
    {"id":"A277","shortName":"Transporte coletivo por ônibus intermunicipal - existência"},
    {"id":"A278","shortName":"Transporte coletivo por ônibus intermunicipal - Este transporte atende também ao deslocamento entre bairros, distritos, localidades dentro do município"}
  ]
}
