{
  "name": "Ceará",
  "url": "ftp://ftp.ibge.gov.br/Censos/Censo_Demografico_1991/Indice_de_Gini/Ceara.zip",
  "md5": "f70fdd3dc195d76f4ab2c969985c1627",
  "fileInZip": "GINI91CE.XLS",
  "md5FileInZip": "9bd8b9890ddb80a1efbc850993e4508c",
  "startRow": 3,
  "format": "xls.zip",
  "workbook": "Plan1",
  "years": [1991],
  "cityColumn": 0,
  "indicatorRow": 0,
  "firstCityId": "2300101",
  "lastCityId": "2314102",
  "endRow": 187,
  "indicatorStartColumn": 1,
  "indicators": [
    {
      "id": "gini",
      "indicatorRowId": 1991,
      "shortName": "Índice de Gini"
    }
  ]
}
