{
  "name": "Rio Grande do Sul",
  "url": "ftp://ftp.ibge.gov.br/Censos/Censo_Demografico_1991/Indice_de_Gini/Rio_Grande_do_Sul .zip",
  "md5": "a29c7cb38fcf744e77038459d4d6ff6d",
  "fileInZip": "GINI91RS.XLS",
  "md5FileInZip": "bf7a54087818b7a3a17873b7fd1758c9",
  "startRow": 3,
  "format": "xls.zip",
  "workbook": "Plan1",
  "years": [1991],
  "cityColumn": 0,
  "indicatorRow": 0,
  "firstCityId": "4300059",
  "lastCityId": "4323804",
  "indicatorStartColumn": 1,
  "indicators": [
    {
      "id": "gini",
      "indicatorRowId": 1991,
      "shortName": "Índice de Gini"
    }
  ]
}
