{
  "name": "Evolução do IFDM Educação",
  "url": "https://www.firjan.com.br/data/files/5B/F3/48/87/F1B8461049FF6646A8A809C2/Evolu__o%20do%20IFDM%20Educa__o%20-%202005%20a%202016.xlsx",
  "format": "xlsx",
  "md5": "541e907ff8ea61e602483325fd65ffad",
  "workbook": "IFDM Educação - 2005a2016",
  "cityIdColumn": 0,
  "indicatorStartColumn": 4,
  "startRow": 3,
  "endRow": 5568,
  "years": [2005, 2006, 2007, 2008, 2009, 2010, 2011, 2012, 2013, 2014, 2015, 2016],
  "yearCycle": true,
  "indicatorRow": 2,
  "firstCityId": "1100015",
  "lastCityId": "5300108",
  "indicators": [
    {
      "tid": "ifdmedunota",
      "id": "Nota",
      "shortName": "IFDM Educação Nota"
    },
    {
      "tid": "ifdmeduranking",
      "id": "Ranking",
      "shortName": "IFDM Educação Ranking"
    }
  ]
}
